[
    {
        "id": 110101,
        "itemId": 334000,
        "LCONEMCLIOA": 1101,
        "PHGIDJKDECA": "GCG_CARD_FACE_GOLD",
        "HGBBMHLNELB": 218001,
        "BILAHNAJNDH": [],
        "nameTextMapHash": 3010413875,
        "descTextMapHash": 78147148
    },
    {
        "id": 110201,
        "itemId": 334023,
        "LCONEMCLIOA": 1102,
        "PHGIDJKDECA": "GCG_CARD_FACE_GOLD",
        "HGBBMHLNELB": 218139,
        "BILAHNAJNDH": [],
        "nameTextMapHash": 2437109955,
        "descTextMapHash": 247888940
    },
    {
        "id": 110301,
        "itemId": 334001,
        "LCONEMCLIOA": 1103,
        "PHGIDJKDECA": "GCG_CARD_FACE_GOLD",
        "HGBBMHLNELB": 218002,
        "BILAHNAJNDH": [],
        "nameTextMapHash": 4035620611,
        "descTextMapHash": 1564340500
    },
    {
        "id": 110401,
        "itemId": 334002,
        "LCONEMCLIOA": 1104,
        "PHGIDJKDECA": "GCG_CARD_FACE_GOLD",
        "HGBBMHLNELB": 218003,
        "BILAHNAJNDH": [],
        "nameTextMapHash": 308715979,
        "descTextMapHash": 4163554060
    },
    {
        "id": 110501,
        "itemId": 334003,
        "LCONEMCLIOA": 1105,
        "PHGIDJKDECA": "GCG_CARD_FACE_GOLD",
        "HGBBMHLNELB": 218004,
        "BILAHNAJNDH": [],
        "nameTextMapHash": 1195591451,
        "descTextMapHash": 2994128852
    },
    {
        "id": 110601,
        "itemId": 334030,
        "LCONEMCLIOA": 1106,
        "PHGIDJKDECA": "GCG_CARD_FACE_GOLD",
        "HGBBMHLNELB": 218154,
        "BILAHNAJNDH": [],
        "nameTextMapHash": 739966827,
        "descTextMapHash": 2173118372
    },
    {
        "id": 120101,
        "itemId": 334025,
        "LCONEMCLIOA": 1201,
        "PHGIDJKDECA": "GCG_CARD_FACE_GOLD",
        "HGBBMHLNELB": 218143,
        "BILAHNAJNDH": [],
        "nameTextMapHash": 3939953179,
        "descTextMapHash": 2182756388
    },
    {
        "id": 120201,
        "itemId": 334004,
        "LCONEMCLIOA": 1202,
        "PHGIDJKDECA": "GCG_CARD_FACE_GOLD",
        "HGBBMHLNELB": 218005,
        "BILAHNAJNDH": [],
        "nameTextMapHash": 2959045571,
        "descTextMapHash": 1183367564
    },
    {
        "id": 120301,
        "itemId": 334005,
        "LCONEMCLIOA": 1203,
        "PHGIDJKDECA": "GCG_CARD_FACE_GOLD",
        "HGBBMHLNELB": 218006,
        "BILAHNAJNDH": [],
        "nameTextMapHash": 1436995603,
        "descTextMapHash": 957473860
    },
    {
        "id": 120501,
        "itemId": 334031,
        "LCONEMCLIOA": 1205,
        "PHGIDJKDECA": "GCG_CARD_FACE_GOLD",
        "HGBBMHLNELB": 218150,
        "BILAHNAJNDH": [],
        "nameTextMapHash": 1240798459,
        "descTextMapHash": 893367948
    },
    {
        "id": 130101,
        "itemId": 334006,
        "LCONEMCLIOA": 1301,
        "PHGIDJKDECA": "GCG_CARD_FACE_GOLD",
        "HGBBMHLNELB": 218007,
        "BILAHNAJNDH": [],
        "nameTextMapHash": 33839459,
        "descTextMapHash": 2518720724
    },
    {
        "id": 130201,
        "itemId": 334007,
        "LCONEMCLIOA": 1302,
        "PHGIDJKDECA": "GCG_CARD_FACE_GOLD",
        "HGBBMHLNELB": 218008,
        "BILAHNAJNDH": [],
        "nameTextMapHash": 3964201227,
        "descTextMapHash": 3439491548
    },
    {
        "id": 130301,
        "itemId": 334008,
        "LCONEMCLIOA": 1303,
        "PHGIDJKDECA": "GCG_CARD_FACE_GOLD",
        "HGBBMHLNELB": 218009,
        "BILAHNAJNDH": [],
        "nameTextMapHash": 401032875,
        "descTextMapHash": 1657912316
    },
    {
        "id": 130501,
        "itemId": 334010,
        "LCONEMCLIOA": 1305,
        "PHGIDJKDECA": "GCG_CARD_FACE_GOLD",
        "HGBBMHLNELB": 218011,
        "BILAHNAJNDH": [],
        "nameTextMapHash": 2682590427,
        "descTextMapHash": 431317396
    },
    {
        "id": 130601,
        "itemId": 334029,
        "LCONEMCLIOA": 1306,
        "PHGIDJKDECA": "GCG_CARD_FACE_GOLD",
        "HGBBMHLNELB": 218149,
        "BILAHNAJNDH": [],
        "nameTextMapHash": 556184227,
        "descTextMapHash": 1678291692
    },
    {
        "id": 140101,
        "itemId": 334011,
        "LCONEMCLIOA": 1401,
        "PHGIDJKDECA": "GCG_CARD_FACE_GOLD",
        "HGBBMHLNELB": 218012,
        "BILAHNAJNDH": [],
        "nameTextMapHash": 2232334595,
        "descTextMapHash": 2764641916
    },
    {
        "id": 140201,
        "itemId": 334012,
        "LCONEMCLIOA": 1402,
        "PHGIDJKDECA": "GCG_CARD_FACE_GOLD",
        "HGBBMHLNELB": 218013,
        "BILAHNAJNDH": [],
        "nameTextMapHash": 2581496499,
        "descTextMapHash": 2870151212
    },
    {
        "id": 140301,
        "itemId": 334013,
        "LCONEMCLIOA": 1403,
        "PHGIDJKDECA": "GCG_CARD_FACE_GOLD",
        "HGBBMHLNELB": 218014,
        "BILAHNAJNDH": [],
        "nameTextMapHash": 1420909147,
        "descTextMapHash": 4263622788
    },
    {
        "id": 140401,
        "itemId": 334024,
        "LCONEMCLIOA": 1404,
        "PHGIDJKDECA": "GCG_CARD_FACE_GOLD",
        "HGBBMHLNELB": 218140,
        "BILAHNAJNDH": [],
        "nameTextMapHash": 2189672875,
        "descTextMapHash": 2602562740
    },
    {
        "id": 140501,
        "itemId": 334028,
        "LCONEMCLIOA": 1405,
        "PHGIDJKDECA": "GCG_CARD_FACE_GOLD",
        "HGBBMHLNELB": 218148,
        "BILAHNAJNDH": [],
        "nameTextMapHash": 4206967411,
        "descTextMapHash": 370212156
    },
    {
        "id": 140601,
        "itemId": 334032,
        "LCONEMCLIOA": 1406,
        "PHGIDJKDECA": "GCG_CARD_FACE_GOLD",
        "HGBBMHLNELB": 218151,
        "BILAHNAJNDH": [],
        "nameTextMapHash": 3109527011,
        "descTextMapHash": 1633074300
    },
    {
        "id": 150101,
        "itemId": 334014,
        "LCONEMCLIOA": 1501,
        "PHGIDJKDECA": "GCG_CARD_FACE_GOLD",
        "HGBBMHLNELB": 218015,
        "BILAHNAJNDH": [],
        "nameTextMapHash": 869911539,
        "descTextMapHash": 1750550948
    },
    {
        "id": 150201,
        "itemId": 334015,
        "LCONEMCLIOA": 1502,
        "PHGIDJKDECA": "GCG_CARD_FACE_GOLD",
        "HGBBMHLNELB": 218016,
        "BILAHNAJNDH": [],
        "nameTextMapHash": 1289668811,
        "descTextMapHash": 2583953788
    },
    {
        "id": 160101,
        "itemId": 334016,
        "LCONEMCLIOA": 1601,
        "PHGIDJKDECA": "GCG_CARD_FACE_GOLD",
        "HGBBMHLNELB": 218017,
        "BILAHNAJNDH": [],
        "nameTextMapHash": 3502472467,
        "descTextMapHash": 3429201788
    },
    {
        "id": 160201,
        "itemId": 334017,
        "LCONEMCLIOA": 1602,
        "PHGIDJKDECA": "GCG_CARD_FACE_GOLD",
        "HGBBMHLNELB": 218018,
        "BILAHNAJNDH": [],
        "nameTextMapHash": 3359956467,
        "descTextMapHash": 3971221060
    },
    {
        "id": 170101,
        "itemId": 334018,
        "LCONEMCLIOA": 1701,
        "PHGIDJKDECA": "GCG_CARD_FACE_GOLD",
        "HGBBMHLNELB": 218019,
        "BILAHNAJNDH": [],
        "nameTextMapHash": 854437851,
        "descTextMapHash": 3882430940
    },
    {
        "id": 220101,
        "itemId": 334019,
        "LCONEMCLIOA": 2201,
        "PHGIDJKDECA": "GCG_CARD_FACE_GOLD",
        "HGBBMHLNELB": 218020,
        "BILAHNAJNDH": [],
        "nameTextMapHash": 1781384187,
        "descTextMapHash": 4264282852
    },
    {
        "id": 220201,
        "itemId": 334026,
        "LCONEMCLIOA": 2202,
        "PHGIDJKDECA": "GCG_CARD_FACE_GOLD",
        "HGBBMHLNELB": 218145,
        "BILAHNAJNDH": [],
        "nameTextMapHash": 2827233475,
        "descTextMapHash": 2601605628
    },
    {
        "id": 230101,
        "itemId": 334020,
        "LCONEMCLIOA": 2301,
        "PHGIDJKDECA": "GCG_CARD_FACE_GOLD",
        "HGBBMHLNELB": 218021,
        "BILAHNAJNDH": [],
        "nameTextMapHash": 357170715,
        "descTextMapHash": 869762236
    },
    {
        "id": 250101,
        "itemId": 334021,
        "LCONEMCLIOA": 2501,
        "PHGIDJKDECA": "GCG_CARD_FACE_GOLD",
        "HGBBMHLNELB": 218022,
        "BILAHNAJNDH": [],
        "nameTextMapHash": 770944515,
        "descTextMapHash": 3452571212
    },
    {
        "id": 260101,
        "itemId": 334022,
        "LCONEMCLIOA": 2601,
        "PHGIDJKDECA": "GCG_CARD_FACE_GOLD",
        "HGBBMHLNELB": 218023,
        "BILAHNAJNDH": [],
        "nameTextMapHash": 233392779,
        "descTextMapHash": 2972847428
    },
    {
        "id": 270101,
        "itemId": 334027,
        "LCONEMCLIOA": 2701,
        "PHGIDJKDECA": "GCG_CARD_FACE_GOLD",
        "HGBBMHLNELB": 218147,
        "BILAHNAJNDH": [],
        "nameTextMapHash": 2480757491,
        "descTextMapHash": 2117547628
    },
    {
        "id": 2110111,
        "itemId": 334500,
        "LCONEMCLIOA": 211011,
        "PHGIDJKDECA": "GCG_CARD_FACE_GOLD",
        "OMMLHDECHBG": "GCG_PROFICIENCY_REWARD",
        "BILAHNAJNDH": [
            10
        ],
        "nameTextMapHash": 2458735499,
        "descTextMapHash": 987049124
    },
    {
        "id": 2110211,
        "itemId": 334523,
        "LCONEMCLIOA": 211021,
        "PHGIDJKDECA": "GCG_CARD_FACE_GOLD",
        "OMMLHDECHBG": "GCG_PROFICIENCY_REWARD",
        "BILAHNAJNDH": [
            10
        ],
        "nameTextMapHash": 66494035,
        "descTextMapHash": 3127664196
    },
    {
        "id": 2110311,
        "itemId": 334501,
        "LCONEMCLIOA": 211031,
        "PHGIDJKDECA": "GCG_CARD_FACE_GOLD",
        "OMMLHDECHBG": "GCG_PROFICIENCY_REWARD",
        "BILAHNAJNDH": [
            10
        ],
        "nameTextMapHash": 3260750867,
        "descTextMapHash": 1378421020
    },
    {
        "id": 2110411,
        "itemId": 334502,
        "LCONEMCLIOA": 211041,
        "PHGIDJKDECA": "GCG_CARD_FACE_GOLD",
        "OMMLHDECHBG": "GCG_PROFICIENCY_REWARD",
        "BILAHNAJNDH": [
            10
        ],
        "nameTextMapHash": 4047073427,
        "descTextMapHash": 1605519468
    },
    {
        "id": 2110511,
        "itemId": 334503,
        "LCONEMCLIOA": 211051,
        "PHGIDJKDECA": "GCG_CARD_FACE_GOLD",
        "OMMLHDECHBG": "GCG_PROFICIENCY_REWARD",
        "BILAHNAJNDH": [
            10
        ],
        "nameTextMapHash": 2586257603,
        "descTextMapHash": 4105252844
    },
    {
        "id": 2110611,
        "itemId": 334530,
        "LCONEMCLIOA": 211061,
        "PHGIDJKDECA": "GCG_CARD_FACE_GOLD",
        "OMMLHDECHBG": "GCG_PROFICIENCY_REWARD",
        "BILAHNAJNDH": [
            10
        ],
        "nameTextMapHash": 1366300083,
        "descTextMapHash": 3809305172
    },
    {
        "id": 2120111,
        "itemId": 334525,
        "LCONEMCLIOA": 212011,
        "PHGIDJKDECA": "GCG_CARD_FACE_GOLD",
        "OMMLHDECHBG": "GCG_PROFICIENCY_REWARD",
        "BILAHNAJNDH": [
            10
        ],
        "nameTextMapHash": 2964505499,
        "descTextMapHash": 2986440388
    },
    {
        "id": 2120211,
        "itemId": 334504,
        "LCONEMCLIOA": 212021,
        "PHGIDJKDECA": "GCG_CARD_FACE_GOLD",
        "OMMLHDECHBG": "GCG_PROFICIENCY_REWARD",
        "BILAHNAJNDH": [
            10
        ],
        "nameTextMapHash": 3518314419,
        "descTextMapHash": 2014445020
    },
    {
        "id": 2120311,
        "itemId": 334505,
        "LCONEMCLIOA": 212031,
        "PHGIDJKDECA": "GCG_CARD_FACE_GOLD",
        "OMMLHDECHBG": "GCG_PROFICIENCY_REWARD",
        "BILAHNAJNDH": [
            10
        ],
        "nameTextMapHash": 3621885979,
        "descTextMapHash": 2589307684
    },
    {
        "id": 2120511,
        "itemId": 334531,
        "LCONEMCLIOA": 212051,
        "PHGIDJKDECA": "GCG_CARD_FACE_GOLD",
        "OMMLHDECHBG": "GCG_PROFICIENCY_REWARD",
        "BILAHNAJNDH": [
            10
        ],
        "nameTextMapHash": 1012478467,
        "descTextMapHash": 2598524644
    },
    {
        "id": 2130111,
        "itemId": 334506,
        "LCONEMCLIOA": 213011,
        "PHGIDJKDECA": "GCG_CARD_FACE_GOLD",
        "OMMLHDECHBG": "GCG_PROFICIENCY_REWARD",
        "BILAHNAJNDH": [
            10
        ],
        "nameTextMapHash": 2796446363,
        "descTextMapHash": 2938462412
    },
    {
        "id": 2130211,
        "itemId": 334507,
        "LCONEMCLIOA": 213021,
        "PHGIDJKDECA": "GCG_CARD_FACE_GOLD",
        "OMMLHDECHBG": "GCG_PROFICIENCY_REWARD",
        "BILAHNAJNDH": [
            10
        ],
        "nameTextMapHash": 4028580011,
        "descTextMapHash": 3576923044
    },
    {
        "id": 2130311,
        "itemId": 334508,
        "LCONEMCLIOA": 213031,
        "PHGIDJKDECA": "GCG_CARD_FACE_GOLD",
        "OMMLHDECHBG": "GCG_PROFICIENCY_REWARD",
        "BILAHNAJNDH": [
            10
        ],
        "nameTextMapHash": 239546099,
        "descTextMapHash": 3753286172
    },
    {
        "id": 2130511,
        "itemId": 334510,
        "LCONEMCLIOA": 213051,
        "PHGIDJKDECA": "GCG_CARD_FACE_GOLD",
        "OMMLHDECHBG": "GCG_PROFICIENCY_REWARD",
        "BILAHNAJNDH": [
            10
        ],
        "nameTextMapHash": 3625723507,
        "descTextMapHash": 2120840356
    },
    {
        "id": 2130611,
        "itemId": 334529,
        "LCONEMCLIOA": 213061,
        "PHGIDJKDECA": "GCG_CARD_FACE_GOLD",
        "OMMLHDECHBG": "GCG_PROFICIENCY_REWARD",
        "BILAHNAJNDH": [
            10
        ],
        "nameTextMapHash": 2130875907,
        "descTextMapHash": 2161733628
    },
    {
        "id": 2140111,
        "itemId": 334511,
        "LCONEMCLIOA": 214011,
        "PHGIDJKDECA": "GCG_CARD_FACE_GOLD",
        "OMMLHDECHBG": "GCG_PROFICIENCY_REWARD",
        "BILAHNAJNDH": [
            10
        ],
        "nameTextMapHash": 3645782099,
        "descTextMapHash": 1859727052
    },
    {
        "id": 2140211,
        "itemId": 334512,
        "LCONEMCLIOA": 214021,
        "PHGIDJKDECA": "GCG_CARD_FACE_GOLD",
        "OMMLHDECHBG": "GCG_PROFICIENCY_REWARD",
        "BILAHNAJNDH": [
            10
        ],
        "nameTextMapHash": 2869093227,
        "descTextMapHash": 2012033716
    },
    {
        "id": 2140311,
        "itemId": 334513,
        "LCONEMCLIOA": 214031,
        "PHGIDJKDECA": "GCG_CARD_FACE_GOLD",
        "OMMLHDECHBG": "GCG_PROFICIENCY_REWARD",
        "BILAHNAJNDH": [
            10
        ],
        "nameTextMapHash": 3355615771,
        "descTextMapHash": 1532907316
    },
    {
        "id": 2140411,
        "itemId": 334524,
        "LCONEMCLIOA": 214041,
        "PHGIDJKDECA": "GCG_CARD_FACE_GOLD",
        "OMMLHDECHBG": "GCG_PROFICIENCY_REWARD",
        "BILAHNAJNDH": [
            10
        ],
        "nameTextMapHash": 2892272243,
        "descTextMapHash": 2716655492
    },
    {
        "id": 2140511,
        "itemId": 334528,
        "LCONEMCLIOA": 214051,
        "PHGIDJKDECA": "GCG_CARD_FACE_GOLD",
        "OMMLHDECHBG": "GCG_PROFICIENCY_REWARD",
        "BILAHNAJNDH": [
            10
        ],
        "nameTextMapHash": 511423003,
        "descTextMapHash": 406265908
    },
    {
        "id": 2140611,
        "itemId": 334532,
        "LCONEMCLIOA": 214061,
        "PHGIDJKDECA": "GCG_CARD_FACE_GOLD",
        "OMMLHDECHBG": "GCG_PROFICIENCY_REWARD",
        "BILAHNAJNDH": [
            10
        ],
        "nameTextMapHash": 3213164027,
        "descTextMapHash": 1381983508
    },
    {
        "id": 2150111,
        "itemId": 334514,
        "LCONEMCLIOA": 215011,
        "PHGIDJKDECA": "GCG_CARD_FACE_GOLD",
        "OMMLHDECHBG": "GCG_PROFICIENCY_REWARD",
        "BILAHNAJNDH": [
            10
        ],
        "nameTextMapHash": 650101603,
        "descTextMapHash": 3638401004
    },
    {
        "id": 2150211,
        "itemId": 334515,
        "LCONEMCLIOA": 215021,
        "PHGIDJKDECA": "GCG_CARD_FACE_GOLD",
        "OMMLHDECHBG": "GCG_PROFICIENCY_REWARD",
        "BILAHNAJNDH": [
            10
        ],
        "nameTextMapHash": 24456347,
        "descTextMapHash": 471424324
    },
    {
        "id": 2160111,
        "itemId": 334516,
        "LCONEMCLIOA": 216011,
        "PHGIDJKDECA": "GCG_CARD_FACE_GOLD",
        "OMMLHDECHBG": "GCG_PROFICIENCY_REWARD",
        "BILAHNAJNDH": [
            10
        ],
        "nameTextMapHash": 2847341987,
        "descTextMapHash": 4217118316
    },
    {
        "id": 2160211,
        "itemId": 334517,
        "LCONEMCLIOA": 216021,
        "PHGIDJKDECA": "GCG_CARD_FACE_GOLD",
        "OMMLHDECHBG": "GCG_PROFICIENCY_REWARD",
        "BILAHNAJNDH": [
            10
        ],
        "nameTextMapHash": 2638304211,
        "descTextMapHash": 3518871444
    },
    {
        "id": 2170111,
        "itemId": 334518,
        "LCONEMCLIOA": 217011,
        "PHGIDJKDECA": "GCG_CARD_FACE_GOLD",
        "OMMLHDECHBG": "GCG_PROFICIENCY_REWARD",
        "BILAHNAJNDH": [
            10
        ],
        "nameTextMapHash": 3770505595,
        "descTextMapHash": 2234614268
    },
    {
        "id": 2220111,
        "itemId": 334519,
        "LCONEMCLIOA": 222011,
        "PHGIDJKDECA": "GCG_CARD_FACE_GOLD",
        "OMMLHDECHBG": "GCG_PROFICIENCY_REWARD",
        "BILAHNAJNDH": [
            10
        ],
        "nameTextMapHash": 2705637499,
        "descTextMapHash": 539652388
    },
    {
        "id": 2220211,
        "itemId": 334526,
        "LCONEMCLIOA": 222021,
        "PHGIDJKDECA": "GCG_CARD_FACE_GOLD",
        "OMMLHDECHBG": "GCG_PROFICIENCY_REWARD",
        "BILAHNAJNDH": [
            10
        ],
        "nameTextMapHash": 3951191459,
        "descTextMapHash": 4257832172
    },
    {
        "id": 2230111,
        "itemId": 334520,
        "LCONEMCLIOA": 223011,
        "PHGIDJKDECA": "GCG_CARD_FACE_GOLD",
        "OMMLHDECHBG": "GCG_PROFICIENCY_REWARD",
        "BILAHNAJNDH": [
            10
        ],
        "nameTextMapHash": 3267593643,
        "descTextMapHash": 2764010196
    },
    {
        "id": 2250111,
        "itemId": 334521,
        "LCONEMCLIOA": 225011,
        "PHGIDJKDECA": "GCG_CARD_FACE_GOLD",
        "OMMLHDECHBG": "GCG_PROFICIENCY_REWARD",
        "BILAHNAJNDH": [
            10
        ],
        "nameTextMapHash": 1539564339,
        "descTextMapHash": 2635012396
    },
    {
        "id": 2260111,
        "itemId": 334522,
        "LCONEMCLIOA": 226011,
        "PHGIDJKDECA": "GCG_CARD_FACE_GOLD",
        "OMMLHDECHBG": "GCG_PROFICIENCY_REWARD",
        "BILAHNAJNDH": [
            10
        ],
        "nameTextMapHash": 3652574067,
        "descTextMapHash": 2537875556
    },
    {
        "id": 2270111,
        "itemId": 334527,
        "LCONEMCLIOA": 227011,
        "PHGIDJKDECA": "GCG_CARD_FACE_GOLD",
        "OMMLHDECHBG": "GCG_PROFICIENCY_REWARD",
        "BILAHNAJNDH": [
            10
        ],
        "nameTextMapHash": 2810396779,
        "descTextMapHash": 1527709772
    },
    {
        "id": 3111011,
        "itemId": 335000,
        "LCONEMCLIOA": 311101,
        "PHGIDJKDECA": "GCG_CARD_FACE_GOLD",
        "HGBBMHLNELB": 218047,
        "BILAHNAJNDH": [],
        "nameTextMapHash": 2878199235,
        "descTextMapHash": 1734909268
    },
    {
        "id": 3111021,
        "itemId": 335001,
        "LCONEMCLIOA": 311102,
        "PHGIDJKDECA": "GCG_CARD_FACE_GOLD",
        "HGBBMHLNELB": 218048,
        "BILAHNAJNDH": [],
        "nameTextMapHash": 3477618683,
        "descTextMapHash": 42461692
    },
    {
        "id": 3111031,
        "itemId": 335002,
        "LCONEMCLIOA": 311103,
        "PHGIDJKDECA": "GCG_CARD_FACE_GOLD",
        "HGBBMHLNELB": 218049,
        "BILAHNAJNDH": [],
        "nameTextMapHash": 2251697355,
        "descTextMapHash": 3540955428
    },
    {
        "id": 3112011,
        "itemId": 335003,
        "LCONEMCLIOA": 311201,
        "PHGIDJKDECA": "GCG_CARD_FACE_GOLD",
        "HGBBMHLNELB": 218050,
        "BILAHNAJNDH": [],
        "nameTextMapHash": 305937875,
        "descTextMapHash": 1658908508
    },
    {
        "id": 3112021,
        "itemId": 335004,
        "LCONEMCLIOA": 311202,
        "PHGIDJKDECA": "GCG_CARD_FACE_GOLD",
        "HGBBMHLNELB": 218051,
        "BILAHNAJNDH": [],
        "nameTextMapHash": 863998435,
        "descTextMapHash": 1169219516
    },
    {
        "id": 3112031,
        "itemId": 335005,
        "LCONEMCLIOA": 311203,
        "PHGIDJKDECA": "GCG_CARD_FACE_GOLD",
        "HGBBMHLNELB": 218052,
        "BILAHNAJNDH": [],
        "nameTextMapHash": 1511741595,
        "descTextMapHash": 1168818300
    },
    {
        "id": 3113011,
        "itemId": 335006,
        "LCONEMCLIOA": 311301,
        "PHGIDJKDECA": "GCG_CARD_FACE_GOLD",
        "HGBBMHLNELB": 218053,
        "BILAHNAJNDH": [],
        "nameTextMapHash": 2970162443,
        "descTextMapHash": 3967427196
    },
    {
        "id": 3113021,
        "itemId": 335007,
        "LCONEMCLIOA": 311302,
        "PHGIDJKDECA": "GCG_CARD_FACE_GOLD",
        "HGBBMHLNELB": 218054,
        "BILAHNAJNDH": [],
        "nameTextMapHash": 363308403,
        "descTextMapHash": 1352441556
    },
    {
        "id": 3113031,
        "itemId": 335008,
        "LCONEMCLIOA": 311303,
        "PHGIDJKDECA": "GCG_CARD_FACE_GOLD",
        "HGBBMHLNELB": 218055,
        "BILAHNAJNDH": [],
        "nameTextMapHash": 3560632363,
        "descTextMapHash": 2400989820
    },
    {
        "id": 3114011,
        "itemId": 335009,
        "LCONEMCLIOA": 311401,
        "PHGIDJKDECA": "GCG_CARD_FACE_GOLD",
        "HGBBMHLNELB": 218056,
        "BILAHNAJNDH": [],
        "nameTextMapHash": 3176608635,
        "descTextMapHash": 1581911156
    },
    {
        "id": 3114021,
        "itemId": 335010,
        "LCONEMCLIOA": 311402,
        "PHGIDJKDECA": "GCG_CARD_FACE_GOLD",
        "HGBBMHLNELB": 218057,
        "BILAHNAJNDH": [],
        "nameTextMapHash": 1746375075,
        "descTextMapHash": 685889044
    },
    {
        "id": 3114031,
        "itemId": 335011,
        "LCONEMCLIOA": 311403,
        "PHGIDJKDECA": "GCG_CARD_FACE_GOLD",
        "HGBBMHLNELB": 218058,
        "BILAHNAJNDH": [],
        "nameTextMapHash": 3766794195,
        "descTextMapHash": 3498902916
    },
    {
        "id": 3115011,
        "itemId": 335012,
        "LCONEMCLIOA": 311501,
        "PHGIDJKDECA": "GCG_CARD_FACE_GOLD",
        "HGBBMHLNELB": 218059,
        "BILAHNAJNDH": [],
        "nameTextMapHash": 436964795,
        "descTextMapHash": 3727900436
    },
    {
        "id": 3115021,
        "itemId": 335013,
        "LCONEMCLIOA": 311502,
        "PHGIDJKDECA": "GCG_CARD_FACE_GOLD",
        "HGBBMHLNELB": 218060,
        "BILAHNAJNDH": [],
        "nameTextMapHash": 3229267,
        "descTextMapHash": 4294526932
    },
    {
        "id": 3115031,
        "itemId": 335014,
        "LCONEMCLIOA": 311503,
        "PHGIDJKDECA": "GCG_CARD_FACE_GOLD",
        "HGBBMHLNELB": 218061,
        "BILAHNAJNDH": [],
        "nameTextMapHash": 1706059395,
        "descTextMapHash": 2304796700
    },
    {
        "id": 3120011,
        "itemId": 335015,
        "LCONEMCLIOA": 312001,
        "PHGIDJKDECA": "GCG_CARD_FACE_GOLD",
        "HGBBMHLNELB": 218062,
        "BILAHNAJNDH": [],
        "nameTextMapHash": 4011200563,
        "descTextMapHash": 378142116
    },
    {
        "id": 3120021,
        "itemId": 335016,
        "LCONEMCLIOA": 312002,
        "PHGIDJKDECA": "GCG_CARD_FACE_GOLD",
        "HGBBMHLNELB": 218063,
        "BILAHNAJNDH": [],
        "nameTextMapHash": 3651745771,
        "descTextMapHash": 971499132
    },
    {
        "id": 3120031,
        "itemId": 335017,
        "LCONEMCLIOA": 312003,
        "PHGIDJKDECA": "GCG_CARD_FACE_GOLD",
        "HGBBMHLNELB": 218064,
        "BILAHNAJNDH": [],
        "nameTextMapHash": 79656747,
        "descTextMapHash": 3557937908
    },
    {
        "id": 3120041,
        "itemId": 335018,
        "LCONEMCLIOA": 312004,
        "PHGIDJKDECA": "GCG_CARD_FACE_GOLD",
        "HGBBMHLNELB": 218065,
        "BILAHNAJNDH": [],
        "nameTextMapHash": 4287776475,
        "descTextMapHash": 2545593492
    },
    {
        "id": 3120051,
        "itemId": 335019,
        "LCONEMCLIOA": 312005,
        "PHGIDJKDECA": "GCG_CARD_FACE_GOLD",
        "HGBBMHLNELB": 218066,
        "BILAHNAJNDH": [],
        "nameTextMapHash": 2123895835,
        "descTextMapHash": 2603827844
    },
    {
        "id": 3120061,
        "itemId": 335020,
        "LCONEMCLIOA": 312006,
        "PHGIDJKDECA": "GCG_CARD_FACE_GOLD",
        "HGBBMHLNELB": 218067,
        "BILAHNAJNDH": [],
        "nameTextMapHash": 3471815539,
        "descTextMapHash": 3606390892
    },
    {
        "id": 3120071,
        "itemId": 335035,
        "LCONEMCLIOA": 312007,
        "PHGIDJKDECA": "GCG_CARD_FACE_GOLD",
        "HGBBMHLNELB": 218152,
        "BILAHNAJNDH": [],
        "nameTextMapHash": 2235526891,
        "descTextMapHash": 470704636
    },
    {
        "id": 3120091,
        "itemId": 335036,
        "LCONEMCLIOA": 312009,
        "PHGIDJKDECA": "GCG_CARD_FACE_GOLD",
        "HGBBMHLNELB": 218153,
        "BILAHNAJNDH": [],
        "nameTextMapHash": 2644534259,
        "descTextMapHash": 433944804
    },
    {
        "id": 3121011,
        "itemId": 335021,
        "LCONEMCLIOA": 312101,
        "PHGIDJKDECA": "GCG_CARD_FACE_GOLD",
        "HGBBMHLNELB": 218068,
        "BILAHNAJNDH": [],
        "nameTextMapHash": 440510067,
        "descTextMapHash": 1537802924
    },
    {
        "id": 3121021,
        "itemId": 335022,
        "LCONEMCLIOA": 312102,
        "PHGIDJKDECA": "GCG_CARD_FACE_GOLD",
        "HGBBMHLNELB": 218069,
        "BILAHNAJNDH": [],
        "nameTextMapHash": 679363787,
        "descTextMapHash": 3109555732
    },
    {
        "id": 3122011,
        "itemId": 335023,
        "LCONEMCLIOA": 312201,
        "PHGIDJKDECA": "GCG_CARD_FACE_GOLD",
        "HGBBMHLNELB": 218070,
        "BILAHNAJNDH": [],
        "nameTextMapHash": 775669203,
        "descTextMapHash": 1874479820
    },
    {
        "id": 3122021,
        "itemId": 335024,
        "LCONEMCLIOA": 312202,
        "PHGIDJKDECA": "GCG_CARD_FACE_GOLD",
        "HGBBMHLNELB": 218071,
        "BILAHNAJNDH": [],
        "nameTextMapHash": 4065140395,
        "descTextMapHash": 3108266180
    },
    {
        "id": 3123011,
        "itemId": 335025,
        "LCONEMCLIOA": 312301,
        "PHGIDJKDECA": "GCG_CARD_FACE_GOLD",
        "HGBBMHLNELB": 218072,
        "BILAHNAJNDH": [],
        "nameTextMapHash": 1350461435,
        "descTextMapHash": 1861997540
    },
    {
        "id": 3123021,
        "itemId": 335026,
        "LCONEMCLIOA": 312302,
        "PHGIDJKDECA": "GCG_CARD_FACE_GOLD",
        "HGBBMHLNELB": 218073,
        "BILAHNAJNDH": [],
        "nameTextMapHash": 3997018691,
        "descTextMapHash": 3030193140
    },
    {
        "id": 3124011,
        "itemId": 335027,
        "LCONEMCLIOA": 312401,
        "PHGIDJKDECA": "GCG_CARD_FACE_GOLD",
        "HGBBMHLNELB": 218074,
        "BILAHNAJNDH": [],
        "nameTextMapHash": 2931461395,
        "descTextMapHash": 3087962132
    },
    {
        "id": 3124021,
        "itemId": 335028,
        "LCONEMCLIOA": 312402,
        "PHGIDJKDECA": "GCG_CARD_FACE_GOLD",
        "HGBBMHLNELB": 218075,
        "BILAHNAJNDH": [],
        "nameTextMapHash": 1035247451,
        "descTextMapHash": 3981342044
    },
    {
        "id": 3125011,
        "itemId": 335029,
        "LCONEMCLIOA": 312501,
        "PHGIDJKDECA": "GCG_CARD_FACE_GOLD",
        "HGBBMHLNELB": 218076,
        "BILAHNAJNDH": [],
        "nameTextMapHash": 276548003,
        "descTextMapHash": 2640412460
    },
    {
        "id": 3125021,
        "itemId": 335030,
        "LCONEMCLIOA": 312502,
        "PHGIDJKDECA": "GCG_CARD_FACE_GOLD",
        "HGBBMHLNELB": 218077,
        "BILAHNAJNDH": [],
        "nameTextMapHash": 3729841739,
        "descTextMapHash": 1678113748
    },
    {
        "id": 3126011,
        "itemId": 335031,
        "LCONEMCLIOA": 312601,
        "PHGIDJKDECA": "GCG_CARD_FACE_GOLD",
        "HGBBMHLNELB": 218078,
        "BILAHNAJNDH": [],
        "nameTextMapHash": 2190237595,
        "descTextMapHash": 1937614204
    },
    {
        "id": 3126021,
        "itemId": 335032,
        "LCONEMCLIOA": 312602,
        "PHGIDJKDECA": "GCG_CARD_FACE_GOLD",
        "HGBBMHLNELB": 218079,
        "BILAHNAJNDH": [],
        "nameTextMapHash": 597119043,
        "descTextMapHash": 3416809652
    },
    {
        "id": 3127011,
        "itemId": 335033,
        "LCONEMCLIOA": 312701,
        "PHGIDJKDECA": "GCG_CARD_FACE_GOLD",
        "HGBBMHLNELB": 218080,
        "BILAHNAJNDH": [],
        "nameTextMapHash": 1230736403,
        "descTextMapHash": 2039751284
    },
    {
        "id": 3127021,
        "itemId": 335034,
        "LCONEMCLIOA": 312702,
        "PHGIDJKDECA": "GCG_CARD_FACE_GOLD",
        "HGBBMHLNELB": 218081,
        "BILAHNAJNDH": [],
        "nameTextMapHash": 2342796651,
        "descTextMapHash": 3530577228
    },
    {
        "id": 3210011,
        "itemId": 336000,
        "LCONEMCLIOA": 321001,
        "PHGIDJKDECA": "GCG_CARD_FACE_GOLD",
        "HGBBMHLNELB": 218082,
        "BILAHNAJNDH": [],
        "nameTextMapHash": 2907630963,
        "descTextMapHash": 2434400148
    },
    {
        "id": 3210021,
        "itemId": 336001,
        "LCONEMCLIOA": 321002,
        "PHGIDJKDECA": "GCG_CARD_FACE_GOLD",
        "HGBBMHLNELB": 218083,
        "BILAHNAJNDH": [],
        "nameTextMapHash": 3165828891,
        "descTextMapHash": 495635932
    },
    {
        "id": 3210031,
        "itemId": 336002,
        "LCONEMCLIOA": 321003,
        "PHGIDJKDECA": "GCG_CARD_FACE_GOLD",
        "HGBBMHLNELB": 218084,
        "BILAHNAJNDH": [],
        "nameTextMapHash": 3793926219,
        "descTextMapHash": 546824652
    },
    {
        "id": 3210041,
        "itemId": 336003,
        "LCONEMCLIOA": 321004,
        "PHGIDJKDECA": "GCG_CARD_FACE_GOLD",
        "HGBBMHLNELB": 218085,
        "BILAHNAJNDH": [],
        "nameTextMapHash": 3091970907,
        "descTextMapHash": 1589951812
    },
    {
        "id": 3210051,
        "itemId": 336004,
        "LCONEMCLIOA": 321005,
        "PHGIDJKDECA": "GCG_CARD_FACE_GOLD",
        "HGBBMHLNELB": 218086,
        "BILAHNAJNDH": [],
        "nameTextMapHash": 1305122547,
        "descTextMapHash": 2379333732
    },
    {
        "id": 3210061,
        "itemId": 336005,
        "LCONEMCLIOA": 321006,
        "PHGIDJKDECA": "GCG_CARD_FACE_GOLD",
        "HGBBMHLNELB": 218087,
        "BILAHNAJNDH": [],
        "nameTextMapHash": 44649979,
        "descTextMapHash": 4187950036
    },
    {
        "id": 3220011,
        "itemId": 336006,
        "LCONEMCLIOA": 322001,
        "PHGIDJKDECA": "GCG_CARD_FACE_GOLD",
        "HGBBMHLNELB": 218088,
        "BILAHNAJNDH": [],
        "nameTextMapHash": 3964803219,
        "descTextMapHash": 2491892388
    },
    {
        "id": 3220021,
        "itemId": 336007,
        "LCONEMCLIOA": 322002,
        "PHGIDJKDECA": "GCG_CARD_FACE_GOLD",
        "HGBBMHLNELB": 218089,
        "BILAHNAJNDH": [],
        "nameTextMapHash": 2348903451,
        "descTextMapHash": 547237444
    },
    {
        "id": 3220031,
        "itemId": 336008,
        "LCONEMCLIOA": 322003,
        "PHGIDJKDECA": "GCG_CARD_FACE_GOLD",
        "HGBBMHLNELB": 218090,
        "BILAHNAJNDH": [],
        "nameTextMapHash": 4010173443,
        "descTextMapHash": 3813518684
    },
    {
        "id": 3220041,
        "itemId": 336009,
        "LCONEMCLIOA": 322004,
        "PHGIDJKDECA": "GCG_CARD_FACE_GOLD",
        "HGBBMHLNELB": 218091,
        "BILAHNAJNDH": [],
        "nameTextMapHash": 536282499,
        "descTextMapHash": 952296732
    },
    {
        "id": 3220051,
        "itemId": 336010,
        "LCONEMCLIOA": 322005,
        "PHGIDJKDECA": "GCG_CARD_FACE_GOLD",
        "HGBBMHLNELB": 218092,
        "BILAHNAJNDH": [],
        "nameTextMapHash": 1886482555,
        "descTextMapHash": 3117559676
    },
    {
        "id": 3220061,
        "itemId": 336011,
        "LCONEMCLIOA": 322006,
        "PHGIDJKDECA": "GCG_CARD_FACE_GOLD",
        "HGBBMHLNELB": 218093,
        "BILAHNAJNDH": [],
        "nameTextMapHash": 924556475,
        "descTextMapHash": 3613285428
    },
    {
        "id": 3220071,
        "itemId": 336012,
        "LCONEMCLIOA": 322007,
        "PHGIDJKDECA": "GCG_CARD_FACE_GOLD",
        "HGBBMHLNELB": 218094,
        "BILAHNAJNDH": [],
        "nameTextMapHash": 1535859851,
        "descTextMapHash": 4135517772
    },
    {
        "id": 3220081,
        "itemId": 336013,
        "LCONEMCLIOA": 322008,
        "PHGIDJKDECA": "GCG_CARD_FACE_GOLD",
        "HGBBMHLNELB": 218095,
        "BILAHNAJNDH": [],
        "nameTextMapHash": 308042739,
        "descTextMapHash": 2434597396
    },
    {
        "id": 3220091,
        "itemId": 336014,
        "LCONEMCLIOA": 322009,
        "PHGIDJKDECA": "GCG_CARD_FACE_GOLD",
        "HGBBMHLNELB": 218096,
        "BILAHNAJNDH": [],
        "nameTextMapHash": 3985408643,
        "descTextMapHash": 2619885100
    },
    {
        "id": 3220101,
        "itemId": 336015,
        "LCONEMCLIOA": 322010,
        "PHGIDJKDECA": "GCG_CARD_FACE_GOLD",
        "HGBBMHLNELB": 218097,
        "BILAHNAJNDH": [],
        "nameTextMapHash": 356834139,
        "descTextMapHash": 3813469196
    },
    {
        "id": 3220111,
        "itemId": 336016,
        "LCONEMCLIOA": 322011,
        "PHGIDJKDECA": "GCG_CARD_FACE_GOLD",
        "HGBBMHLNELB": 218098,
        "BILAHNAJNDH": [],
        "nameTextMapHash": 3897871515,
        "descTextMapHash": 3098844580
    },
    {
        "id": 3220121,
        "itemId": 336017,
        "LCONEMCLIOA": 322012,
        "PHGIDJKDECA": "GCG_CARD_FACE_GOLD",
        "HGBBMHLNELB": 218099,
        "BILAHNAJNDH": [],
        "nameTextMapHash": 1099199659,
        "descTextMapHash": 3472397780
    },
    {
        "id": 3230011,
        "itemId": 336018,
        "LCONEMCLIOA": 323001,
        "PHGIDJKDECA": "GCG_CARD_FACE_GOLD",
        "HGBBMHLNELB": 218100,
        "BILAHNAJNDH": [],
        "nameTextMapHash": 2802477723,
        "descTextMapHash": 283698316
    },
    {
        "id": 3230021,
        "itemId": 336019,
        "LCONEMCLIOA": 323002,
        "PHGIDJKDECA": "GCG_CARD_FACE_GOLD",
        "HGBBMHLNELB": 218101,
        "BILAHNAJNDH": [],
        "nameTextMapHash": 4024954403,
        "descTextMapHash": 3242991284
    },
    {
        "id": 3311011,
        "itemId": 337000,
        "LCONEMCLIOA": 331101,
        "PHGIDJKDECA": "GCG_CARD_FACE_GOLD",
        "HGBBMHLNELB": 218102,
        "BILAHNAJNDH": [],
        "nameTextMapHash": 1381565955,
        "descTextMapHash": 1547300620
    },
    {
        "id": 3311021,
        "itemId": 337001,
        "LCONEMCLIOA": 331102,
        "PHGIDJKDECA": "GCG_CARD_FACE_GOLD",
        "HGBBMHLNELB": 218103,
        "BILAHNAJNDH": [],
        "nameTextMapHash": 2238801491,
        "descTextMapHash": 3836833524
    },
    {
        "id": 3312011,
        "itemId": 337002,
        "LCONEMCLIOA": 331201,
        "PHGIDJKDECA": "GCG_CARD_FACE_GOLD",
        "HGBBMHLNELB": 218104,
        "BILAHNAJNDH": [],
        "nameTextMapHash": 1958433987,
        "descTextMapHash": 2089541628
    },
    {
        "id": 3312021,
        "itemId": 337003,
        "LCONEMCLIOA": 331202,
        "PHGIDJKDECA": "GCG_CARD_FACE_GOLD",
        "HGBBMHLNELB": 218105,
        "BILAHNAJNDH": [],
        "nameTextMapHash": 1912528915,
        "descTextMapHash": 1145507092
    },
    {
        "id": 3313011,
        "itemId": 337004,
        "LCONEMCLIOA": 331301,
        "PHGIDJKDECA": "GCG_CARD_FACE_GOLD",
        "HGBBMHLNELB": 218106,
        "BILAHNAJNDH": [],
        "nameTextMapHash": 2826394163,
        "descTextMapHash": 1595324012
    },
    {
        "id": 3313021,
        "itemId": 337005,
        "LCONEMCLIOA": 331302,
        "PHGIDJKDECA": "GCG_CARD_FACE_GOLD",
        "HGBBMHLNELB": 218107,
        "BILAHNAJNDH": [],
        "nameTextMapHash": 3314978099,
        "descTextMapHash": 1347365060
    },
    {
        "id": 3314011,
        "itemId": 337006,
        "LCONEMCLIOA": 331401,
        "PHGIDJKDECA": "GCG_CARD_FACE_GOLD",
        "HGBBMHLNELB": 218108,
        "BILAHNAJNDH": [],
        "nameTextMapHash": 1406388723,
        "descTextMapHash": 881533668
    },
    {
        "id": 3314021,
        "itemId": 337007,
        "LCONEMCLIOA": 331402,
        "PHGIDJKDECA": "GCG_CARD_FACE_GOLD",
        "HGBBMHLNELB": 218109,
        "BILAHNAJNDH": [],
        "nameTextMapHash": 264108763,
        "descTextMapHash": 1641017388
    },
    {
        "id": 3315011,
        "itemId": 337008,
        "LCONEMCLIOA": 331501,
        "PHGIDJKDECA": "GCG_CARD_FACE_GOLD",
        "HGBBMHLNELB": 218110,
        "BILAHNAJNDH": [],
        "nameTextMapHash": 3099509531,
        "descTextMapHash": 3774937276
    },
    {
        "id": 3315021,
        "itemId": 337009,
        "LCONEMCLIOA": 331502,
        "PHGIDJKDECA": "GCG_CARD_FACE_GOLD",
        "HGBBMHLNELB": 218111,
        "BILAHNAJNDH": [],
        "nameTextMapHash": 1236870907,
        "descTextMapHash": 213436884
    },
    {
        "id": 3316011,
        "itemId": 337010,
        "LCONEMCLIOA": 331601,
        "PHGIDJKDECA": "GCG_CARD_FACE_GOLD",
        "HGBBMHLNELB": 218112,
        "BILAHNAJNDH": [],
        "nameTextMapHash": 3796706563,
        "descTextMapHash": 3862592284
    },
    {
        "id": 3316021,
        "itemId": 337011,
        "LCONEMCLIOA": 331602,
        "PHGIDJKDECA": "GCG_CARD_FACE_GOLD",
        "HGBBMHLNELB": 218113,
        "BILAHNAJNDH": [],
        "nameTextMapHash": 1600109675,
        "descTextMapHash": 1324939180
    },
    {
        "id": 3317011,
        "itemId": 337012,
        "LCONEMCLIOA": 331701,
        "PHGIDJKDECA": "GCG_CARD_FACE_GOLD",
        "HGBBMHLNELB": 218114,
        "BILAHNAJNDH": [],
        "nameTextMapHash": 3962382259,
        "descTextMapHash": 1434413468
    },
    {
        "id": 3317021,
        "itemId": 337013,
        "LCONEMCLIOA": 331702,
        "PHGIDJKDECA": "GCG_CARD_FACE_GOLD",
        "HGBBMHLNELB": 218115,
        "BILAHNAJNDH": [],
        "nameTextMapHash": 842681115,
        "descTextMapHash": 3957892860
    },
    {
        "id": 3320011,
        "itemId": 337014,
        "LCONEMCLIOA": 332001,
        "PHGIDJKDECA": "GCG_CARD_FACE_GOLD",
        "HGBBMHLNELB": 218116,
        "BILAHNAJNDH": [],
        "nameTextMapHash": 509094323,
        "descTextMapHash": 332106004
    },
    {
        "id": 3320021,
        "itemId": 337015,
        "LCONEMCLIOA": 332002,
        "PHGIDJKDECA": "GCG_CARD_FACE_GOLD",
        "HGBBMHLNELB": 218117,
        "BILAHNAJNDH": [],
        "nameTextMapHash": 2859920747,
        "descTextMapHash": 560454692
    },
    {
        "id": 3320031,
        "itemId": 337016,
        "LCONEMCLIOA": 332003,
        "PHGIDJKDECA": "GCG_CARD_FACE_GOLD",
        "HGBBMHLNELB": 218118,
        "BILAHNAJNDH": [],
        "nameTextMapHash": 2365060267,
        "descTextMapHash": 3395517492
    },
    {
        "id": 3320041,
        "itemId": 337017,
        "LCONEMCLIOA": 332004,
        "PHGIDJKDECA": "GCG_CARD_FACE_GOLD",
        "HGBBMHLNELB": 218119,
        "BILAHNAJNDH": [],
        "nameTextMapHash": 1808217779,
        "descTextMapHash": 579847180
    },
    {
        "id": 3320051,
        "itemId": 337018,
        "LCONEMCLIOA": 332005,
        "PHGIDJKDECA": "GCG_CARD_FACE_GOLD",
        "HGBBMHLNELB": 218120,
        "BILAHNAJNDH": [],
        "nameTextMapHash": 192254963,
        "descTextMapHash": 2167926852
    },
    {
        "id": 3320061,
        "itemId": 337019,
        "LCONEMCLIOA": 332006,
        "PHGIDJKDECA": "GCG_CARD_FACE_GOLD",
        "HGBBMHLNELB": 218121,
        "BILAHNAJNDH": [],
        "nameTextMapHash": 3020852043,
        "descTextMapHash": 663448156
    },
    {
        "id": 3320071,
        "itemId": 337020,
        "LCONEMCLIOA": 332007,
        "PHGIDJKDECA": "GCG_CARD_FACE_GOLD",
        "HGBBMHLNELB": 218122,
        "BILAHNAJNDH": [],
        "nameTextMapHash": 2185969715,
        "descTextMapHash": 527630884
    },
    {
        "id": 3320081,
        "itemId": 337021,
        "LCONEMCLIOA": 332008,
        "PHGIDJKDECA": "GCG_CARD_FACE_GOLD",
        "HGBBMHLNELB": 218123,
        "BILAHNAJNDH": [],
        "nameTextMapHash": 4155571059,
        "descTextMapHash": 3381643276
    },
    {
        "id": 3320091,
        "itemId": 337022,
        "LCONEMCLIOA": 332009,
        "PHGIDJKDECA": "GCG_CARD_FACE_GOLD",
        "HGBBMHLNELB": 218124,
        "BILAHNAJNDH": [],
        "nameTextMapHash": 3861729627,
        "descTextMapHash": 15698764
    },
    {
        "id": 3320101,
        "itemId": 337023,
        "LCONEMCLIOA": 332010,
        "PHGIDJKDECA": "GCG_CARD_FACE_GOLD",
        "HGBBMHLNELB": 218125,
        "BILAHNAJNDH": [],
        "nameTextMapHash": 2958957051,
        "descTextMapHash": 2063217924
    },
    {
        "id": 3320111,
        "itemId": 337024,
        "LCONEMCLIOA": 332011,
        "PHGIDJKDECA": "GCG_CARD_FACE_GOLD",
        "HGBBMHLNELB": 218126,
        "BILAHNAJNDH": [],
        "nameTextMapHash": 1142605995,
        "descTextMapHash": 3477838276
    },
    {
        "id": 3320121,
        "itemId": 337025,
        "LCONEMCLIOA": 332012,
        "PHGIDJKDECA": "GCG_CARD_FACE_GOLD",
        "HGBBMHLNELB": 218127,
        "BILAHNAJNDH": [],
        "nameTextMapHash": 1714592051,
        "descTextMapHash": 1703622836
    },
    {
        "id": 3320131,
        "itemId": 337026,
        "LCONEMCLIOA": 332013,
        "PHGIDJKDECA": "GCG_CARD_FACE_GOLD",
        "HGBBMHLNELB": 218128,
        "BILAHNAJNDH": [],
        "nameTextMapHash": 3260710443,
        "descTextMapHash": 2849384260
    },
    {
        "id": 3320141,
        "itemId": 337027,
        "LCONEMCLIOA": 332014,
        "PHGIDJKDECA": "GCG_CARD_FACE_GOLD",
        "HGBBMHLNELB": 218129,
        "BILAHNAJNDH": [],
        "nameTextMapHash": 3150837395,
        "descTextMapHash": 458639388
    },
    {
        "id": 3320151,
        "itemId": 337028,
        "LCONEMCLIOA": 332015,
        "PHGIDJKDECA": "GCG_CARD_FACE_GOLD",
        "HGBBMHLNELB": 218130,
        "BILAHNAJNDH": [],
        "nameTextMapHash": 707820923,
        "descTextMapHash": 791527412
    },
    {
        "id": 3330011,
        "itemId": 337029,
        "LCONEMCLIOA": 333001,
        "PHGIDJKDECA": "GCG_CARD_FACE_GOLD",
        "HGBBMHLNELB": 218131,
        "BILAHNAJNDH": [],
        "nameTextMapHash": 3626997827,
        "descTextMapHash": 971813812
    },
    {
        "id": 3330021,
        "itemId": 337030,
        "LCONEMCLIOA": 333002,
        "PHGIDJKDECA": "GCG_CARD_FACE_GOLD",
        "HGBBMHLNELB": 218132,
        "BILAHNAJNDH": [],
        "nameTextMapHash": 3413698403,
        "descTextMapHash": 1106533348
    },
    {
        "id": 3330031,
        "itemId": 337031,
        "LCONEMCLIOA": 333003,
        "PHGIDJKDECA": "GCG_CARD_FACE_GOLD",
        "HGBBMHLNELB": 218133,
        "BILAHNAJNDH": [],
        "nameTextMapHash": 1112289131,
        "descTextMapHash": 2181954724
    },
    {
        "id": 3330041,
        "itemId": 337032,
        "LCONEMCLIOA": 333004,
        "PHGIDJKDECA": "GCG_CARD_FACE_GOLD",
        "HGBBMHLNELB": 218134,
        "BILAHNAJNDH": [],
        "nameTextMapHash": 2186425475,
        "descTextMapHash": 269004188
    },
    {
        "id": 3330051,
        "itemId": 337033,
        "LCONEMCLIOA": 333005,
        "PHGIDJKDECA": "GCG_CARD_FACE_GOLD",
        "HGBBMHLNELB": 218135,
        "BILAHNAJNDH": [],
        "nameTextMapHash": 3556240947,
        "descTextMapHash": 3971344228
    },
    {
        "id": 3330061,
        "itemId": 337034,
        "LCONEMCLIOA": 333006,
        "PHGIDJKDECA": "GCG_CARD_FACE_GOLD",
        "HGBBMHLNELB": 218136,
        "BILAHNAJNDH": [],
        "nameTextMapHash": 3558720523,
        "descTextMapHash": 3839071396
    },
    {
        "id": 3330071,
        "itemId": 337035,
        "LCONEMCLIOA": 333007,
        "PHGIDJKDECA": "GCG_CARD_FACE_GOLD",
        "HGBBMHLNELB": 218137,
        "BILAHNAJNDH": [],
        "nameTextMapHash": 2064111963,
        "descTextMapHash": 4102995740
    },
    {
        "id": 3330081,
        "itemId": 337036,
        "LCONEMCLIOA": 333008,
        "PHGIDJKDECA": "GCG_CARD_FACE_GOLD",
        "HGBBMHLNELB": 218138,
        "BILAHNAJNDH": [],
        "nameTextMapHash": 4003505331,
        "descTextMapHash": 938494156
    }
]