[
    {
        "IDNICJNHDFF": 11,
        "NFPBAOPFKOB": 1,
        "ALKLNHOFBNG": 1,
        "ADDKJHCPJBF": 2,
        "CFAEHEMKMNF": 1,
        "JJDHEDIELLH": 3,
        "JMJFMNDOGLH": 1,
        "LHMDLBIBIPE": 4,
        "PIJOEHNBEJN": 1
    },
    {
        "IDNICJNHDFF": 12,
        "NFPBAOPFKOB": 1,
        "ALKLNHOFBNG": 1,
        "ADDKJHCPJBF": 2,
        "CFAEHEMKMNF": 2,
        "JJDHEDIELLH": 3,
        "JMJFMNDOGLH": 2,
        "LHMDLBIBIPE": 4,
        "PIJOEHNBEJN": 2
    },
    {
        "IDNICJNHDFF": 140101,
        "NFPBAOPFKOB": 14010101,
        "ALKLNHOFBNG": 1,
        "ADDKJHCPJBF": 14010102,
        "CFAEHEMKMNF": 1,
        "JJDHEDIELLH": 14010103,
        "JMJFMNDOGLH": 1,
        "LHMDLBIBIPE": 14010104,
        "PIJOEHNBEJN": 1
    },
    {
        "IDNICJNHDFF": 140102,
        "NFPBAOPFKOB": 14010101,
        "ALKLNHOFBNG": 1,
        "ADDKJHCPJBF": 14010102,
        "CFAEHEMKMNF": 1,
        "JJDHEDIELLH": 14010103,
        "JMJFMNDOGLH": 1,
        "LHMDLBIBIPE": 14010104,
        "PIJOEHNBEJN": 1
    },
    {
        "IDNICJNHDFF": 140103,
        "NFPBAOPFKOB": 14010101,
        "ALKLNHOFBNG": 1,
        "ADDKJHCPJBF": 14010102,
        "CFAEHEMKMNF": 1,
        "JJDHEDIELLH": 14010103,
        "JMJFMNDOGLH": 1,
        "LHMDLBIBIPE": 14010104,
        "PIJOEHNBEJN": 1
    },
    {
        "IDNICJNHDFF": 140104,
        "NFPBAOPFKOB": 14010111,
        "ALKLNHOFBNG": 1,
        "ADDKJHCPJBF": 14010112,
        "CFAEHEMKMNF": 1,
        "JJDHEDIELLH": 14010113,
        "JMJFMNDOGLH": 1,
        "LHMDLBIBIPE": 14010114,
        "PIJOEHNBEJN": 1
    },
    {
        "IDNICJNHDFF": 110101,
        "NFPBAOPFKOB": 11010101,
        "ALKLNHOFBNG": 1,
        "ADDKJHCPJBF": 11010102,
        "CFAEHEMKMNF": 1,
        "JJDHEDIELLH": 11010103,
        "JMJFMNDOGLH": 1,
        "LHMDLBIBIPE": 11010104,
        "PIJOEHNBEJN": 1
    },
    {
        "IDNICJNHDFF": 110102,
        "NFPBAOPFKOB": 11010101,
        "ALKLNHOFBNG": 1,
        "ADDKJHCPJBF": 11010102,
        "CFAEHEMKMNF": 1,
        "JJDHEDIELLH": 11010103,
        "JMJFMNDOGLH": 1,
        "LHMDLBIBIPE": 11010104,
        "PIJOEHNBEJN": 1
    },
    {
        "IDNICJNHDFF": 110103,
        "NFPBAOPFKOB": 11010101,
        "ALKLNHOFBNG": 1,
        "ADDKJHCPJBF": 11010102,
        "CFAEHEMKMNF": 1,
        "JJDHEDIELLH": 11010103,
        "JMJFMNDOGLH": 1,
        "LHMDLBIBIPE": 11010104,
        "PIJOEHNBEJN": 1
    },
    {
        "IDNICJNHDFF": 110104,
        "NFPBAOPFKOB": 11010111,
        "ALKLNHOFBNG": 1,
        "ADDKJHCPJBF": 11010112,
        "CFAEHEMKMNF": 1,
        "JJDHEDIELLH": 11010113,
        "JMJFMNDOGLH": 1,
        "LHMDLBIBIPE": 11010114,
        "PIJOEHNBEJN": 1
    },
    {
        "IDNICJNHDFF": 110201,
        "NFPBAOPFKOB": 11020101,
        "ALKLNHOFBNG": 1,
        "ADDKJHCPJBF": 11020102,
        "CFAEHEMKMNF": 1,
        "JJDHEDIELLH": 11020103,
        "JMJFMNDOGLH": 1,
        "LHMDLBIBIPE": 11020104,
        "PIJOEHNBEJN": 1
    },
    {
        "IDNICJNHDFF": 110202,
        "NFPBAOPFKOB": 11020101,
        "ALKLNHOFBNG": 1,
        "ADDKJHCPJBF": 11020102,
        "CFAEHEMKMNF": 1,
        "JJDHEDIELLH": 11020103,
        "JMJFMNDOGLH": 1,
        "LHMDLBIBIPE": 11020104,
        "PIJOEHNBEJN": 1
    },
    {
        "IDNICJNHDFF": 110203,
        "NFPBAOPFKOB": 11020101,
        "ALKLNHOFBNG": 1,
        "ADDKJHCPJBF": 11020102,
        "CFAEHEMKMNF": 1,
        "JJDHEDIELLH": 11020103,
        "JMJFMNDOGLH": 1,
        "LHMDLBIBIPE": 11020104,
        "PIJOEHNBEJN": 1
    },
    {
        "IDNICJNHDFF": 110204,
        "NFPBAOPFKOB": 11020111,
        "ALKLNHOFBNG": 1,
        "ADDKJHCPJBF": 11020112,
        "CFAEHEMKMNF": 1,
        "JJDHEDIELLH": 11020113,
        "JMJFMNDOGLH": 1,
        "LHMDLBIBIPE": 11020114,
        "PIJOEHNBEJN": 1
    },
    {
        "IDNICJNHDFF": 110301,
        "NFPBAOPFKOB": 11030101,
        "ALKLNHOFBNG": 1,
        "ADDKJHCPJBF": 11030102,
        "CFAEHEMKMNF": 1,
        "JJDHEDIELLH": 11030103,
        "JMJFMNDOGLH": 1,
        "LHMDLBIBIPE": 11030104,
        "PIJOEHNBEJN": 1
    },
    {
        "IDNICJNHDFF": 110302,
        "NFPBAOPFKOB": 11030101,
        "ALKLNHOFBNG": 1,
        "ADDKJHCPJBF": 11030102,
        "CFAEHEMKMNF": 1,
        "JJDHEDIELLH": 11030103,
        "JMJFMNDOGLH": 1,
        "LHMDLBIBIPE": 11030104,
        "PIJOEHNBEJN": 1
    },
    {
        "IDNICJNHDFF": 110303,
        "NFPBAOPFKOB": 11030101,
        "ALKLNHOFBNG": 1,
        "ADDKJHCPJBF": 11030102,
        "CFAEHEMKMNF": 1,
        "JJDHEDIELLH": 11030103,
        "JMJFMNDOGLH": 1,
        "LHMDLBIBIPE": 11030104,
        "PIJOEHNBEJN": 1
    },
    {
        "IDNICJNHDFF": 110304,
        "NFPBAOPFKOB": 11030111,
        "ALKLNHOFBNG": 1,
        "ADDKJHCPJBF": 11030112,
        "CFAEHEMKMNF": 1,
        "JJDHEDIELLH": 11030113,
        "JMJFMNDOGLH": 1,
        "LHMDLBIBIPE": 11030114,
        "PIJOEHNBEJN": 1
    },
    {
        "IDNICJNHDFF": 110401,
        "NFPBAOPFKOB": 11040101,
        "ALKLNHOFBNG": 1,
        "ADDKJHCPJBF": 11040102,
        "CFAEHEMKMNF": 1,
        "JJDHEDIELLH": 11040103,
        "JMJFMNDOGLH": 1,
        "LHMDLBIBIPE": 11040104,
        "PIJOEHNBEJN": 1
    },
    {
        "IDNICJNHDFF": 110402,
        "NFPBAOPFKOB": 11040101,
        "ALKLNHOFBNG": 1,
        "ADDKJHCPJBF": 11040102,
        "CFAEHEMKMNF": 1,
        "JJDHEDIELLH": 11040103,
        "JMJFMNDOGLH": 1,
        "LHMDLBIBIPE": 11040104,
        "PIJOEHNBEJN": 1
    },
    {
        "IDNICJNHDFF": 110403,
        "NFPBAOPFKOB": 11040101,
        "ALKLNHOFBNG": 1,
        "ADDKJHCPJBF": 11040102,
        "CFAEHEMKMNF": 1,
        "JJDHEDIELLH": 11040103,
        "JMJFMNDOGLH": 1,
        "LHMDLBIBIPE": 11040104,
        "PIJOEHNBEJN": 1
    },
    {
        "IDNICJNHDFF": 110404,
        "NFPBAOPFKOB": 11040111,
        "ALKLNHOFBNG": 1,
        "ADDKJHCPJBF": 11040112,
        "CFAEHEMKMNF": 1,
        "JJDHEDIELLH": 11040113,
        "JMJFMNDOGLH": 1,
        "LHMDLBIBIPE": 11040114,
        "PIJOEHNBEJN": 1
    },
    {
        "IDNICJNHDFF": 110501,
        "NFPBAOPFKOB": 11050101,
        "ALKLNHOFBNG": 1,
        "ADDKJHCPJBF": 11050102,
        "CFAEHEMKMNF": 1,
        "JJDHEDIELLH": 11050103,
        "JMJFMNDOGLH": 1,
        "LHMDLBIBIPE": 11050104,
        "PIJOEHNBEJN": 1
    },
    {
        "IDNICJNHDFF": 110502,
        "NFPBAOPFKOB": 11050101,
        "ALKLNHOFBNG": 1,
        "ADDKJHCPJBF": 11050102,
        "CFAEHEMKMNF": 1,
        "JJDHEDIELLH": 11050103,
        "JMJFMNDOGLH": 1,
        "LHMDLBIBIPE": 11050104,
        "PIJOEHNBEJN": 1
    },
    {
        "IDNICJNHDFF": 110503,
        "NFPBAOPFKOB": 11050101,
        "ALKLNHOFBNG": 1,
        "ADDKJHCPJBF": 11050102,
        "CFAEHEMKMNF": 1,
        "JJDHEDIELLH": 11050103,
        "JMJFMNDOGLH": 1,
        "LHMDLBIBIPE": 11050104,
        "PIJOEHNBEJN": 1
    },
    {
        "IDNICJNHDFF": 110504,
        "NFPBAOPFKOB": 11050111,
        "ALKLNHOFBNG": 1,
        "ADDKJHCPJBF": 11050112,
        "CFAEHEMKMNF": 1,
        "JJDHEDIELLH": 11050113,
        "JMJFMNDOGLH": 1,
        "LHMDLBIBIPE": 11050114,
        "PIJOEHNBEJN": 1
    },
    {
        "IDNICJNHDFF": 120101,
        "NFPBAOPFKOB": 12010101,
        "ALKLNHOFBNG": 1,
        "ADDKJHCPJBF": 12010102,
        "CFAEHEMKMNF": 1,
        "JJDHEDIELLH": 12010103,
        "JMJFMNDOGLH": 1,
        "LHMDLBIBIPE": 12010104,
        "PIJOEHNBEJN": 1
    },
    {
        "IDNICJNHDFF": 120102,
        "NFPBAOPFKOB": 12010101,
        "ALKLNHOFBNG": 1,
        "ADDKJHCPJBF": 12010102,
        "CFAEHEMKMNF": 1,
        "JJDHEDIELLH": 12010103,
        "JMJFMNDOGLH": 1,
        "LHMDLBIBIPE": 12010104,
        "PIJOEHNBEJN": 1
    },
    {
        "IDNICJNHDFF": 120103,
        "NFPBAOPFKOB": 12010101,
        "ALKLNHOFBNG": 1,
        "ADDKJHCPJBF": 12010102,
        "CFAEHEMKMNF": 1,
        "JJDHEDIELLH": 12010103,
        "JMJFMNDOGLH": 1,
        "LHMDLBIBIPE": 12010104,
        "PIJOEHNBEJN": 1
    },
    {
        "IDNICJNHDFF": 120104,
        "NFPBAOPFKOB": 12010111,
        "ALKLNHOFBNG": 1,
        "ADDKJHCPJBF": 12010112,
        "CFAEHEMKMNF": 1,
        "JJDHEDIELLH": 12010113,
        "JMJFMNDOGLH": 1,
        "LHMDLBIBIPE": 12010114,
        "PIJOEHNBEJN": 1
    },
    {
        "IDNICJNHDFF": 120201,
        "NFPBAOPFKOB": 12020101,
        "ALKLNHOFBNG": 1,
        "ADDKJHCPJBF": 12020102,
        "CFAEHEMKMNF": 1,
        "JJDHEDIELLH": 12020103,
        "JMJFMNDOGLH": 1,
        "LHMDLBIBIPE": 12020104,
        "PIJOEHNBEJN": 1
    },
    {
        "IDNICJNHDFF": 120202,
        "NFPBAOPFKOB": 12020101,
        "ALKLNHOFBNG": 1,
        "ADDKJHCPJBF": 12020102,
        "CFAEHEMKMNF": 1,
        "JJDHEDIELLH": 12020103,
        "JMJFMNDOGLH": 1,
        "LHMDLBIBIPE": 12020104,
        "PIJOEHNBEJN": 1
    },
    {
        "IDNICJNHDFF": 120203,
        "NFPBAOPFKOB": 12020101,
        "ALKLNHOFBNG": 1,
        "ADDKJHCPJBF": 12020102,
        "CFAEHEMKMNF": 1,
        "JJDHEDIELLH": 12020103,
        "JMJFMNDOGLH": 1,
        "LHMDLBIBIPE": 12020104,
        "PIJOEHNBEJN": 1
    },
    {
        "IDNICJNHDFF": 120204,
        "NFPBAOPFKOB": 12020111,
        "ALKLNHOFBNG": 1,
        "ADDKJHCPJBF": 12020112,
        "CFAEHEMKMNF": 1,
        "JJDHEDIELLH": 12020113,
        "JMJFMNDOGLH": 1,
        "LHMDLBIBIPE": 12020114,
        "PIJOEHNBEJN": 1
    },
    {
        "IDNICJNHDFF": 120301,
        "NFPBAOPFKOB": 12030101,
        "ALKLNHOFBNG": 1,
        "ADDKJHCPJBF": 12030102,
        "CFAEHEMKMNF": 1,
        "JJDHEDIELLH": 12030103,
        "JMJFMNDOGLH": 1,
        "LHMDLBIBIPE": 12030104,
        "PIJOEHNBEJN": 1
    },
    {
        "IDNICJNHDFF": 120302,
        "NFPBAOPFKOB": 12030101,
        "ALKLNHOFBNG": 1,
        "ADDKJHCPJBF": 12030102,
        "CFAEHEMKMNF": 1,
        "JJDHEDIELLH": 12030103,
        "JMJFMNDOGLH": 1,
        "LHMDLBIBIPE": 12030104,
        "PIJOEHNBEJN": 1
    },
    {
        "IDNICJNHDFF": 120303,
        "NFPBAOPFKOB": 12030101,
        "ALKLNHOFBNG": 1,
        "ADDKJHCPJBF": 12030102,
        "CFAEHEMKMNF": 1,
        "JJDHEDIELLH": 12030103,
        "JMJFMNDOGLH": 1,
        "LHMDLBIBIPE": 12030104,
        "PIJOEHNBEJN": 1
    },
    {
        "IDNICJNHDFF": 120304,
        "NFPBAOPFKOB": 12030111,
        "ALKLNHOFBNG": 1,
        "ADDKJHCPJBF": 12030112,
        "CFAEHEMKMNF": 1,
        "JJDHEDIELLH": 12030113,
        "JMJFMNDOGLH": 1,
        "LHMDLBIBIPE": 12030114,
        "PIJOEHNBEJN": 1
    },
    {
        "IDNICJNHDFF": 130101,
        "NFPBAOPFKOB": 13010101,
        "ALKLNHOFBNG": 1,
        "ADDKJHCPJBF": 13010102,
        "CFAEHEMKMNF": 1,
        "JJDHEDIELLH": 13010103,
        "JMJFMNDOGLH": 1,
        "LHMDLBIBIPE": 13010104,
        "PIJOEHNBEJN": 1
    },
    {
        "IDNICJNHDFF": 130102,
        "NFPBAOPFKOB": 13010101,
        "ALKLNHOFBNG": 1,
        "ADDKJHCPJBF": 13010102,
        "CFAEHEMKMNF": 1,
        "JJDHEDIELLH": 13010103,
        "JMJFMNDOGLH": 1,
        "LHMDLBIBIPE": 13010104,
        "PIJOEHNBEJN": 1
    },
    {
        "IDNICJNHDFF": 130103,
        "NFPBAOPFKOB": 13010101,
        "ALKLNHOFBNG": 1,
        "ADDKJHCPJBF": 13010102,
        "CFAEHEMKMNF": 1,
        "JJDHEDIELLH": 13010103,
        "JMJFMNDOGLH": 1,
        "LHMDLBIBIPE": 13010104,
        "PIJOEHNBEJN": 1
    },
    {
        "IDNICJNHDFF": 130104,
        "NFPBAOPFKOB": 13010111,
        "ALKLNHOFBNG": 1,
        "ADDKJHCPJBF": 13010112,
        "CFAEHEMKMNF": 1,
        "JJDHEDIELLH": 13010113,
        "JMJFMNDOGLH": 1,
        "LHMDLBIBIPE": 13010114,
        "PIJOEHNBEJN": 1
    },
    {
        "IDNICJNHDFF": 130201,
        "NFPBAOPFKOB": 13020101,
        "ALKLNHOFBNG": 1,
        "ADDKJHCPJBF": 13020102,
        "CFAEHEMKMNF": 1,
        "JJDHEDIELLH": 13020103,
        "JMJFMNDOGLH": 1,
        "LHMDLBIBIPE": 13020104,
        "PIJOEHNBEJN": 1
    },
    {
        "IDNICJNHDFF": 130202,
        "NFPBAOPFKOB": 13020101,
        "ALKLNHOFBNG": 1,
        "ADDKJHCPJBF": 13020102,
        "CFAEHEMKMNF": 1,
        "JJDHEDIELLH": 13020103,
        "JMJFMNDOGLH": 1,
        "LHMDLBIBIPE": 13020104,
        "PIJOEHNBEJN": 1
    },
    {
        "IDNICJNHDFF": 130203,
        "NFPBAOPFKOB": 13020101,
        "ALKLNHOFBNG": 1,
        "ADDKJHCPJBF": 13020102,
        "CFAEHEMKMNF": 1,
        "JJDHEDIELLH": 13020103,
        "JMJFMNDOGLH": 1,
        "LHMDLBIBIPE": 13020104,
        "PIJOEHNBEJN": 1
    },
    {
        "IDNICJNHDFF": 130204,
        "NFPBAOPFKOB": 13020111,
        "ALKLNHOFBNG": 1,
        "ADDKJHCPJBF": 13020112,
        "CFAEHEMKMNF": 1,
        "JJDHEDIELLH": 13020113,
        "JMJFMNDOGLH": 1,
        "LHMDLBIBIPE": 13020114,
        "PIJOEHNBEJN": 1
    },
    {
        "IDNICJNHDFF": 130301,
        "NFPBAOPFKOB": 13030101,
        "ALKLNHOFBNG": 1,
        "ADDKJHCPJBF": 13030102,
        "CFAEHEMKMNF": 1,
        "JJDHEDIELLH": 13030103,
        "JMJFMNDOGLH": 1,
        "LHMDLBIBIPE": 13030104,
        "PIJOEHNBEJN": 1
    },
    {
        "IDNICJNHDFF": 130302,
        "NFPBAOPFKOB": 13030101,
        "ALKLNHOFBNG": 1,
        "ADDKJHCPJBF": 13030102,
        "CFAEHEMKMNF": 1,
        "JJDHEDIELLH": 13030103,
        "JMJFMNDOGLH": 1,
        "LHMDLBIBIPE": 13030104,
        "PIJOEHNBEJN": 1
    },
    {
        "IDNICJNHDFF": 130303,
        "NFPBAOPFKOB": 13030101,
        "ALKLNHOFBNG": 1,
        "ADDKJHCPJBF": 13030102,
        "CFAEHEMKMNF": 1,
        "JJDHEDIELLH": 13030103,
        "JMJFMNDOGLH": 1,
        "LHMDLBIBIPE": 13030104,
        "PIJOEHNBEJN": 1
    },
    {
        "IDNICJNHDFF": 130304,
        "NFPBAOPFKOB": 13030111,
        "ALKLNHOFBNG": 1,
        "ADDKJHCPJBF": 13030112,
        "CFAEHEMKMNF": 1,
        "JJDHEDIELLH": 13030113,
        "JMJFMNDOGLH": 1,
        "LHMDLBIBIPE": 13030114,
        "PIJOEHNBEJN": 1
    },
    {
        "IDNICJNHDFF": 130501,
        "NFPBAOPFKOB": 13050101,
        "ALKLNHOFBNG": 1,
        "ADDKJHCPJBF": 13050102,
        "CFAEHEMKMNF": 1,
        "JJDHEDIELLH": 13050103,
        "JMJFMNDOGLH": 1,
        "LHMDLBIBIPE": 13050104,
        "PIJOEHNBEJN": 1
    },
    {
        "IDNICJNHDFF": 130502,
        "NFPBAOPFKOB": 13050101,
        "ALKLNHOFBNG": 1,
        "ADDKJHCPJBF": 13050102,
        "CFAEHEMKMNF": 1,
        "JJDHEDIELLH": 13050103,
        "JMJFMNDOGLH": 1,
        "LHMDLBIBIPE": 13050104,
        "PIJOEHNBEJN": 1
    },
    {
        "IDNICJNHDFF": 130503,
        "NFPBAOPFKOB": 13050101,
        "ALKLNHOFBNG": 1,
        "ADDKJHCPJBF": 13050102,
        "CFAEHEMKMNF": 1,
        "JJDHEDIELLH": 13050103,
        "JMJFMNDOGLH": 1,
        "LHMDLBIBIPE": 13050104,
        "PIJOEHNBEJN": 1
    },
    {
        "IDNICJNHDFF": 130504,
        "NFPBAOPFKOB": 13050111,
        "ALKLNHOFBNG": 1,
        "ADDKJHCPJBF": 13050112,
        "CFAEHEMKMNF": 1,
        "JJDHEDIELLH": 13050113,
        "JMJFMNDOGLH": 1,
        "LHMDLBIBIPE": 13050114,
        "PIJOEHNBEJN": 1
    },
    {
        "IDNICJNHDFF": 140201,
        "NFPBAOPFKOB": 14020101,
        "ALKLNHOFBNG": 1,
        "ADDKJHCPJBF": 14020102,
        "CFAEHEMKMNF": 1,
        "JJDHEDIELLH": 14020103,
        "JMJFMNDOGLH": 1,
        "LHMDLBIBIPE": 14020104,
        "PIJOEHNBEJN": 1
    },
    {
        "IDNICJNHDFF": 140202,
        "NFPBAOPFKOB": 14020101,
        "ALKLNHOFBNG": 1,
        "ADDKJHCPJBF": 14020102,
        "CFAEHEMKMNF": 1,
        "JJDHEDIELLH": 14020103,
        "JMJFMNDOGLH": 1,
        "LHMDLBIBIPE": 14020104,
        "PIJOEHNBEJN": 1
    },
    {
        "IDNICJNHDFF": 140203,
        "NFPBAOPFKOB": 14020101,
        "ALKLNHOFBNG": 1,
        "ADDKJHCPJBF": 14020102,
        "CFAEHEMKMNF": 1,
        "JJDHEDIELLH": 14020103,
        "JMJFMNDOGLH": 1,
        "LHMDLBIBIPE": 14020104,
        "PIJOEHNBEJN": 1
    },
    {
        "IDNICJNHDFF": 140204,
        "NFPBAOPFKOB": 14020111,
        "ALKLNHOFBNG": 1,
        "ADDKJHCPJBF": 14020112,
        "CFAEHEMKMNF": 1,
        "JJDHEDIELLH": 14020113,
        "JMJFMNDOGLH": 1,
        "LHMDLBIBIPE": 14020114,
        "PIJOEHNBEJN": 1
    },
    {
        "IDNICJNHDFF": 140301,
        "NFPBAOPFKOB": 14030101,
        "ALKLNHOFBNG": 1,
        "ADDKJHCPJBF": 14030102,
        "CFAEHEMKMNF": 1,
        "JJDHEDIELLH": 14030103,
        "JMJFMNDOGLH": 1,
        "LHMDLBIBIPE": 14030104,
        "PIJOEHNBEJN": 1
    },
    {
        "IDNICJNHDFF": 140302,
        "NFPBAOPFKOB": 14030101,
        "ALKLNHOFBNG": 1,
        "ADDKJHCPJBF": 14030102,
        "CFAEHEMKMNF": 1,
        "JJDHEDIELLH": 14030103,
        "JMJFMNDOGLH": 1,
        "LHMDLBIBIPE": 14030104,
        "PIJOEHNBEJN": 1
    },
    {
        "IDNICJNHDFF": 140303,
        "NFPBAOPFKOB": 14030101,
        "ALKLNHOFBNG": 1,
        "ADDKJHCPJBF": 14030102,
        "CFAEHEMKMNF": 1,
        "JJDHEDIELLH": 14030103,
        "JMJFMNDOGLH": 1,
        "LHMDLBIBIPE": 14030104,
        "PIJOEHNBEJN": 1
    },
    {
        "IDNICJNHDFF": 140304,
        "NFPBAOPFKOB": 14030111,
        "ALKLNHOFBNG": 1,
        "ADDKJHCPJBF": 14030112,
        "CFAEHEMKMNF": 1,
        "JJDHEDIELLH": 14030113,
        "JMJFMNDOGLH": 1,
        "LHMDLBIBIPE": 14030114,
        "PIJOEHNBEJN": 1
    },
    {
        "IDNICJNHDFF": 140401,
        "NFPBAOPFKOB": 14040101,
        "ALKLNHOFBNG": 1,
        "ADDKJHCPJBF": 14040102,
        "CFAEHEMKMNF": 1,
        "JJDHEDIELLH": 14040103,
        "JMJFMNDOGLH": 1,
        "LHMDLBIBIPE": 14040104,
        "PIJOEHNBEJN": 1
    },
    {
        "IDNICJNHDFF": 140402,
        "NFPBAOPFKOB": 14040101,
        "ALKLNHOFBNG": 1,
        "ADDKJHCPJBF": 14040102,
        "CFAEHEMKMNF": 1,
        "JJDHEDIELLH": 14040103,
        "JMJFMNDOGLH": 1,
        "LHMDLBIBIPE": 14040104,
        "PIJOEHNBEJN": 1
    },
    {
        "IDNICJNHDFF": 140403,
        "NFPBAOPFKOB": 14040101,
        "ALKLNHOFBNG": 1,
        "ADDKJHCPJBF": 14040102,
        "CFAEHEMKMNF": 1,
        "JJDHEDIELLH": 14040103,
        "JMJFMNDOGLH": 1,
        "LHMDLBIBIPE": 14040104,
        "PIJOEHNBEJN": 1
    },
    {
        "IDNICJNHDFF": 140404,
        "NFPBAOPFKOB": 14040111,
        "ALKLNHOFBNG": 1,
        "ADDKJHCPJBF": 14040112,
        "CFAEHEMKMNF": 1,
        "JJDHEDIELLH": 14040113,
        "JMJFMNDOGLH": 1,
        "LHMDLBIBIPE": 14040114,
        "PIJOEHNBEJN": 1
    },
    {
        "IDNICJNHDFF": 150101,
        "NFPBAOPFKOB": 15010101,
        "ALKLNHOFBNG": 1,
        "ADDKJHCPJBF": 15010102,
        "CFAEHEMKMNF": 1,
        "JJDHEDIELLH": 15010103,
        "JMJFMNDOGLH": 1,
        "LHMDLBIBIPE": 15010104,
        "PIJOEHNBEJN": 1
    },
    {
        "IDNICJNHDFF": 150102,
        "NFPBAOPFKOB": 15010101,
        "ALKLNHOFBNG": 1,
        "ADDKJHCPJBF": 15010102,
        "CFAEHEMKMNF": 1,
        "JJDHEDIELLH": 15010103,
        "JMJFMNDOGLH": 1,
        "LHMDLBIBIPE": 15010104,
        "PIJOEHNBEJN": 1
    },
    {
        "IDNICJNHDFF": 150103,
        "NFPBAOPFKOB": 15010101,
        "ALKLNHOFBNG": 1,
        "ADDKJHCPJBF": 15010102,
        "CFAEHEMKMNF": 1,
        "JJDHEDIELLH": 15010103,
        "JMJFMNDOGLH": 1,
        "LHMDLBIBIPE": 15010104,
        "PIJOEHNBEJN": 1
    },
    {
        "IDNICJNHDFF": 150104,
        "NFPBAOPFKOB": 15010111,
        "ALKLNHOFBNG": 1,
        "ADDKJHCPJBF": 15010112,
        "CFAEHEMKMNF": 1,
        "JJDHEDIELLH": 15010113,
        "JMJFMNDOGLH": 1,
        "LHMDLBIBIPE": 15010114,
        "PIJOEHNBEJN": 1
    },
    {
        "IDNICJNHDFF": 150201,
        "NFPBAOPFKOB": 15020101,
        "ALKLNHOFBNG": 1,
        "ADDKJHCPJBF": 15020102,
        "CFAEHEMKMNF": 1,
        "JJDHEDIELLH": 15020103,
        "JMJFMNDOGLH": 1,
        "LHMDLBIBIPE": 15020104,
        "PIJOEHNBEJN": 1
    },
    {
        "IDNICJNHDFF": 150202,
        "NFPBAOPFKOB": 15020101,
        "ALKLNHOFBNG": 1,
        "ADDKJHCPJBF": 15020102,
        "CFAEHEMKMNF": 1,
        "JJDHEDIELLH": 15020103,
        "JMJFMNDOGLH": 1,
        "LHMDLBIBIPE": 15020104,
        "PIJOEHNBEJN": 1
    },
    {
        "IDNICJNHDFF": 150203,
        "NFPBAOPFKOB": 15020101,
        "ALKLNHOFBNG": 1,
        "ADDKJHCPJBF": 15020102,
        "CFAEHEMKMNF": 1,
        "JJDHEDIELLH": 15020103,
        "JMJFMNDOGLH": 1,
        "LHMDLBIBIPE": 15020104,
        "PIJOEHNBEJN": 1
    },
    {
        "IDNICJNHDFF": 150204,
        "NFPBAOPFKOB": 15020111,
        "ALKLNHOFBNG": 1,
        "ADDKJHCPJBF": 15020112,
        "CFAEHEMKMNF": 1,
        "JJDHEDIELLH": 15020113,
        "JMJFMNDOGLH": 1,
        "LHMDLBIBIPE": 15020114,
        "PIJOEHNBEJN": 1
    },
    {
        "IDNICJNHDFF": 160101,
        "NFPBAOPFKOB": 16010101,
        "ALKLNHOFBNG": 1,
        "ADDKJHCPJBF": 16010102,
        "CFAEHEMKMNF": 1,
        "JJDHEDIELLH": 16010103,
        "JMJFMNDOGLH": 1,
        "LHMDLBIBIPE": 16010104,
        "PIJOEHNBEJN": 1
    },
    {
        "IDNICJNHDFF": 160102,
        "NFPBAOPFKOB": 16010101,
        "ALKLNHOFBNG": 1,
        "ADDKJHCPJBF": 16010102,
        "CFAEHEMKMNF": 1,
        "JJDHEDIELLH": 16010103,
        "JMJFMNDOGLH": 1,
        "LHMDLBIBIPE": 16010104,
        "PIJOEHNBEJN": 1
    },
    {
        "IDNICJNHDFF": 160103,
        "NFPBAOPFKOB": 16010101,
        "ALKLNHOFBNG": 1,
        "ADDKJHCPJBF": 16010102,
        "CFAEHEMKMNF": 1,
        "JJDHEDIELLH": 16010103,
        "JMJFMNDOGLH": 1,
        "LHMDLBIBIPE": 16010104,
        "PIJOEHNBEJN": 1
    },
    {
        "IDNICJNHDFF": 160104,
        "NFPBAOPFKOB": 16010111,
        "ALKLNHOFBNG": 1,
        "ADDKJHCPJBF": 16010112,
        "CFAEHEMKMNF": 1,
        "JJDHEDIELLH": 16010113,
        "JMJFMNDOGLH": 1,
        "LHMDLBIBIPE": 16010114,
        "PIJOEHNBEJN": 1
    },
    {
        "IDNICJNHDFF": 160201,
        "NFPBAOPFKOB": 16020101,
        "ALKLNHOFBNG": 1,
        "ADDKJHCPJBF": 16020102,
        "CFAEHEMKMNF": 1,
        "JJDHEDIELLH": 16020103,
        "JMJFMNDOGLH": 1,
        "LHMDLBIBIPE": 16020104,
        "PIJOEHNBEJN": 1
    },
    {
        "IDNICJNHDFF": 160202,
        "NFPBAOPFKOB": 16020101,
        "ALKLNHOFBNG": 1,
        "ADDKJHCPJBF": 16020102,
        "CFAEHEMKMNF": 1,
        "JJDHEDIELLH": 16020103,
        "JMJFMNDOGLH": 1,
        "LHMDLBIBIPE": 16020104,
        "PIJOEHNBEJN": 1
    },
    {
        "IDNICJNHDFF": 160203,
        "NFPBAOPFKOB": 16020101,
        "ALKLNHOFBNG": 1,
        "ADDKJHCPJBF": 16020102,
        "CFAEHEMKMNF": 1,
        "JJDHEDIELLH": 16020103,
        "JMJFMNDOGLH": 1,
        "LHMDLBIBIPE": 16020104,
        "PIJOEHNBEJN": 1
    },
    {
        "IDNICJNHDFF": 160204,
        "NFPBAOPFKOB": 16020111,
        "ALKLNHOFBNG": 1,
        "ADDKJHCPJBF": 16020112,
        "CFAEHEMKMNF": 1,
        "JJDHEDIELLH": 16020113,
        "JMJFMNDOGLH": 1,
        "LHMDLBIBIPE": 16020114,
        "PIJOEHNBEJN": 1
    },
    {
        "IDNICJNHDFF": 170101,
        "NFPBAOPFKOB": 17010101,
        "ALKLNHOFBNG": 1,
        "ADDKJHCPJBF": 17010102,
        "CFAEHEMKMNF": 1,
        "JJDHEDIELLH": 17010103,
        "JMJFMNDOGLH": 1,
        "LHMDLBIBIPE": 17010104,
        "PIJOEHNBEJN": 1
    },
    {
        "IDNICJNHDFF": 170102,
        "NFPBAOPFKOB": 17010101,
        "ALKLNHOFBNG": 1,
        "ADDKJHCPJBF": 17010102,
        "CFAEHEMKMNF": 1,
        "JJDHEDIELLH": 17010103,
        "JMJFMNDOGLH": 1,
        "LHMDLBIBIPE": 17010104,
        "PIJOEHNBEJN": 1
    },
    {
        "IDNICJNHDFF": 170103,
        "NFPBAOPFKOB": 17010101,
        "ALKLNHOFBNG": 1,
        "ADDKJHCPJBF": 17010102,
        "CFAEHEMKMNF": 1,
        "JJDHEDIELLH": 17010103,
        "JMJFMNDOGLH": 1,
        "LHMDLBIBIPE": 17010104,
        "PIJOEHNBEJN": 1
    },
    {
        "IDNICJNHDFF": 170104,
        "NFPBAOPFKOB": 17010111,
        "ALKLNHOFBNG": 1,
        "ADDKJHCPJBF": 17010112,
        "CFAEHEMKMNF": 1,
        "JJDHEDIELLH": 17010113,
        "JMJFMNDOGLH": 1,
        "LHMDLBIBIPE": 17010114,
        "PIJOEHNBEJN": 1
    },
    {
        "IDNICJNHDFF": 20001,
        "NFPBAOPFKOB": 2000101,
        "ALKLNHOFBNG": 1,
        "ADDKJHCPJBF": 2000102,
        "CFAEHEMKMNF": 1,
        "JJDHEDIELLH": 2000103,
        "JMJFMNDOGLH": 1,
        "LHMDLBIBIPE": 2000104,
        "PIJOEHNBEJN": 1
    },
    {
        "IDNICJNHDFF": 20002,
        "NFPBAOPFKOB": 2000201,
        "ALKLNHOFBNG": 1,
        "ADDKJHCPJBF": 2000202,
        "CFAEHEMKMNF": 1,
        "JJDHEDIELLH": 2000203,
        "JMJFMNDOGLH": 1,
        "LHMDLBIBIPE": 2000204,
        "PIJOEHNBEJN": 1
    },
    {
        "IDNICJNHDFF": 20003,
        "NFPBAOPFKOB": 2000301,
        "ALKLNHOFBNG": 1,
        "ADDKJHCPJBF": 2000302,
        "CFAEHEMKMNF": 1,
        "JJDHEDIELLH": 2000303,
        "JMJFMNDOGLH": 1,
        "LHMDLBIBIPE": 2000304,
        "PIJOEHNBEJN": 1
    },
    {
        "IDNICJNHDFF": 20004,
        "NFPBAOPFKOB": 2000401,
        "ALKLNHOFBNG": 1,
        "ADDKJHCPJBF": 2000402,
        "CFAEHEMKMNF": 1,
        "JJDHEDIELLH": 2000403,
        "JMJFMNDOGLH": 1,
        "LHMDLBIBIPE": 2000404,
        "PIJOEHNBEJN": 1
    },
    {
        "IDNICJNHDFF": 220101,
        "NFPBAOPFKOB": 22010101,
        "ALKLNHOFBNG": 1,
        "LHMDLBIBIPE": 22010104,
        "PIJOEHNBEJN": 1,
        "IACKPCPKOHO": 22010103,
        "KKHGLJOGDGO": 1,
        "HBPEGCLACLM": 8,
        "GIHOFCHGGBM": 4201,
        "FIAGDEGBNEB": 22010102,
        "NLCAELBPNFC": 1,
        "DLOIFGPEJEP": 16,
        "JGILBOBNCHL": 4201
    },
    {
        "IDNICJNHDFF": 220102,
        "NFPBAOPFKOB": 22010111,
        "ALKLNHOFBNG": 1,
        "LHMDLBIBIPE": 22010114,
        "PIJOEHNBEJN": 1,
        "IACKPCPKOHO": 22010113,
        "KKHGLJOGDGO": 1,
        "HBPEGCLACLM": 8,
        "GIHOFCHGGBM": 4202,
        "FIAGDEGBNEB": 22010112,
        "NLCAELBPNFC": 1,
        "DLOIFGPEJEP": 24,
        "JGILBOBNCHL": 4202
    },
    {
        "IDNICJNHDFF": 220201,
        "NFPBAOPFKOB": 22020101,
        "ALKLNHOFBNG": 1,
        "ADDKJHCPJBF": 22020102,
        "CFAEHEMKMNF": 1,
        "LHMDLBIBIPE": 22020104,
        "PIJOEHNBEJN": 1,
        "FIAGDEGBNEB": 22020103,
        "NLCAELBPNFC": 1,
        "DLOIFGPEJEP": 4
    },
    {
        "IDNICJNHDFF": 220202,
        "NFPBAOPFKOB": 22020111,
        "ALKLNHOFBNG": 1,
        "ADDKJHCPJBF": 22020112,
        "CFAEHEMKMNF": 1,
        "JJDHEDIELLH": 22020113,
        "JMJFMNDOGLH": 1,
        "LHMDLBIBIPE": 22020114,
        "PIJOEHNBEJN": 1
    },
    {
        "IDNICJNHDFF": 230101,
        "NFPBAOPFKOB": 23010101,
        "ALKLNHOFBNG": 1,
        "ADDKJHCPJBF": 23010102,
        "CFAEHEMKMNF": 1,
        "LHMDLBIBIPE": 23010104,
        "PIJOEHNBEJN": 1,
        "FIAGDEGBNEB": 23010103,
        "NLCAELBPNFC": 1,
        "DLOIFGPEJEP": 4
    },
    {
        "IDNICJNHDFF": 230102,
        "NFPBAOPFKOB": 23010111,
        "ALKLNHOFBNG": 1,
        "ADDKJHCPJBF": 23010112,
        "CFAEHEMKMNF": 1,
        "JJDHEDIELLH": 23010113,
        "JMJFMNDOGLH": 1,
        "LHMDLBIBIPE": 23010114,
        "PIJOEHNBEJN": 1
    },
    {
        "IDNICJNHDFF": 250101,
        "NFPBAOPFKOB": 25010101,
        "ALKLNHOFBNG": 1,
        "LHMDLBIBIPE": 25010104,
        "PIJOEHNBEJN": 1,
        "IACKPCPKOHO": 25010103,
        "KKHGLJOGDGO": 1,
        "HBPEGCLACLM": 8,
        "FIAGDEGBNEB": 25010102,
        "NLCAELBPNFC": 1,
        "DLOIFGPEJEP": 16
    },
    {
        "IDNICJNHDFF": 250102,
        "NFPBAOPFKOB": 25010111,
        "ALKLNHOFBNG": 1,
        "LHMDLBIBIPE": 25010114,
        "PIJOEHNBEJN": 1,
        "IACKPCPKOHO": 25010113,
        "KKHGLJOGDGO": 1,
        "HBPEGCLACLM": 8,
        "FIAGDEGBNEB": 25010112,
        "NLCAELBPNFC": 1,
        "DLOIFGPEJEP": 24
    },
    {
        "IDNICJNHDFF": 260101,
        "NFPBAOPFKOB": 26010101,
        "ALKLNHOFBNG": 1,
        "LHMDLBIBIPE": 26010104,
        "PIJOEHNBEJN": 1,
        "IACKPCPKOHO": 26010103,
        "KKHGLJOGDGO": 1,
        "HBPEGCLACLM": 5,
        "GIHOFCHGGBM": 4602,
        "FIAGDEGBNEB": 26010102,
        "NLCAELBPNFC": 1,
        "DLOIFGPEJEP": 9,
        "JGILBOBNCHL": 4602
    },
    {
        "IDNICJNHDFF": 260102,
        "NFPBAOPFKOB": 26010111,
        "ALKLNHOFBNG": 1,
        "LHMDLBIBIPE": 26010114,
        "PIJOEHNBEJN": 1,
        "IACKPCPKOHO": 26010113,
        "KKHGLJOGDGO": 1,
        "HBPEGCLACLM": 8,
        "GIHOFCHGGBM": 4603,
        "FIAGDEGBNEB": 26010112,
        "NLCAELBPNFC": 1,
        "DLOIFGPEJEP": 14,
        "JGILBOBNCHL": 4603
    },
    {
        "IDNICJNHDFF": 270101,
        "NFPBAOPFKOB": 27010101,
        "ALKLNHOFBNG": 1,
        "LHMDLBIBIPE": 27010104,
        "PIJOEHNBEJN": 1,
        "IACKPCPKOHO": 27010103,
        "KKHGLJOGDGO": 1,
        "HBPEGCLACLM": 8,
        "GIHOFCHGGBM": 4701,
        "FIAGDEGBNEB": 27010102,
        "NLCAELBPNFC": 1,
        "DLOIFGPEJEP": 16,
        "JGILBOBNCHL": 4701
    },
    {
        "IDNICJNHDFF": 270102,
        "NFPBAOPFKOB": 27010111,
        "ALKLNHOFBNG": 1,
        "LHMDLBIBIPE": 27010114,
        "PIJOEHNBEJN": 1,
        "IACKPCPKOHO": 27010113,
        "KKHGLJOGDGO": 1,
        "HBPEGCLACLM": 8,
        "GIHOFCHGGBM": 4702,
        "FIAGDEGBNEB": 27010112,
        "NLCAELBPNFC": 1,
        "DLOIFGPEJEP": 24,
        "JGILBOBNCHL": 4702
    },
    {
        "IDNICJNHDFF": 30111,
        "NFPBAOPFKOB": 3011101,
        "ALKLNHOFBNG": 1,
        "ADDKJHCPJBF": 3011102,
        "CFAEHEMKMNF": 1,
        "JJDHEDIELLH": 3011103,
        "JMJFMNDOGLH": 1,
        "LHMDLBIBIPE": 3011104,
        "PIJOEHNBEJN": 1
    },
    {
        "IDNICJNHDFF": 30112,
        "NFPBAOPFKOB": 3011201,
        "ALKLNHOFBNG": 1,
        "ADDKJHCPJBF": 3011202,
        "CFAEHEMKMNF": 1,
        "JJDHEDIELLH": 3011203,
        "JMJFMNDOGLH": 1,
        "LHMDLBIBIPE": 3011204,
        "PIJOEHNBEJN": 1
    },
    {
        "IDNICJNHDFF": 130601,
        "NFPBAOPFKOB": 13060101,
        "ALKLNHOFBNG": 1,
        "ADDKJHCPJBF": 13060102,
        "CFAEHEMKMNF": 1,
        "JJDHEDIELLH": 13060103,
        "JMJFMNDOGLH": 1,
        "LHMDLBIBIPE": 13060104,
        "PIJOEHNBEJN": 1
    },
    {
        "IDNICJNHDFF": 130602,
        "NFPBAOPFKOB": 13060101,
        "ALKLNHOFBNG": 1,
        "ADDKJHCPJBF": 13060102,
        "CFAEHEMKMNF": 1,
        "JJDHEDIELLH": 13060103,
        "JMJFMNDOGLH": 1,
        "LHMDLBIBIPE": 13060104,
        "PIJOEHNBEJN": 1
    },
    {
        "IDNICJNHDFF": 130603,
        "NFPBAOPFKOB": 13060101,
        "ALKLNHOFBNG": 1,
        "ADDKJHCPJBF": 13060102,
        "CFAEHEMKMNF": 1,
        "JJDHEDIELLH": 13060103,
        "JMJFMNDOGLH": 1,
        "LHMDLBIBIPE": 13060104,
        "PIJOEHNBEJN": 1
    },
    {
        "IDNICJNHDFF": 130604,
        "NFPBAOPFKOB": 13060111,
        "ALKLNHOFBNG": 1,
        "ADDKJHCPJBF": 13060112,
        "CFAEHEMKMNF": 1,
        "JJDHEDIELLH": 13060113,
        "JMJFMNDOGLH": 1,
        "LHMDLBIBIPE": 13060114,
        "PIJOEHNBEJN": 1
    },
    {
        "IDNICJNHDFF": 140501,
        "NFPBAOPFKOB": 14050101,
        "ALKLNHOFBNG": 1,
        "ADDKJHCPJBF": 14050102,
        "CFAEHEMKMNF": 1,
        "JJDHEDIELLH": 14050103,
        "JMJFMNDOGLH": 1,
        "LHMDLBIBIPE": 14050104,
        "PIJOEHNBEJN": 1
    },
    {
        "IDNICJNHDFF": 140502,
        "NFPBAOPFKOB": 14050101,
        "ALKLNHOFBNG": 1,
        "ADDKJHCPJBF": 14050102,
        "CFAEHEMKMNF": 1,
        "JJDHEDIELLH": 14050103,
        "JMJFMNDOGLH": 1,
        "LHMDLBIBIPE": 14050104,
        "PIJOEHNBEJN": 1
    },
    {
        "IDNICJNHDFF": 140503,
        "NFPBAOPFKOB": 14050101,
        "ALKLNHOFBNG": 1,
        "ADDKJHCPJBF": 14050102,
        "CFAEHEMKMNF": 1,
        "JJDHEDIELLH": 14050103,
        "JMJFMNDOGLH": 1,
        "LHMDLBIBIPE": 14050104,
        "PIJOEHNBEJN": 1
    },
    {
        "IDNICJNHDFF": 140504,
        "NFPBAOPFKOB": 14050111,
        "ALKLNHOFBNG": 1,
        "ADDKJHCPJBF": 14050112,
        "CFAEHEMKMNF": 1,
        "JJDHEDIELLH": 14050113,
        "JMJFMNDOGLH": 1,
        "LHMDLBIBIPE": 14050114,
        "PIJOEHNBEJN": 1
    },
    {
        "IDNICJNHDFF": 50101,
        "NFPBAOPFKOB": 5010101,
        "ALKLNHOFBNG": 1,
        "ADDKJHCPJBF": 5010102,
        "CFAEHEMKMNF": 1,
        "LHMDLBIBIPE": 5010104,
        "PIJOEHNBEJN": 1,
        "FIAGDEGBNEB": 5010103,
        "NLCAELBPNFC": 1,
        "DLOIFGPEJEP": 4
    },
    {
        "IDNICJNHDFF": 50102,
        "NFPBAOPFKOB": 5010201,
        "ALKLNHOFBNG": 1,
        "ADDKJHCPJBF": 5010202,
        "CFAEHEMKMNF": 1,
        "JJDHEDIELLH": 5010203,
        "JMJFMNDOGLH": 1,
        "LHMDLBIBIPE": 5010204,
        "PIJOEHNBEJN": 1
    },
    {
        "IDNICJNHDFF": 50103,
        "NFPBAOPFKOB": 5010301,
        "ALKLNHOFBNG": 1,
        "ADDKJHCPJBF": 5010302,
        "CFAEHEMKMNF": 1,
        "JJDHEDIELLH": 5010303,
        "JMJFMNDOGLH": 1,
        "LHMDLBIBIPE": 5010304,
        "PIJOEHNBEJN": 1
    },
    {
        "IDNICJNHDFF": 50104,
        "NFPBAOPFKOB": 5010401,
        "ALKLNHOFBNG": 1,
        "ADDKJHCPJBF": 5010402,
        "CFAEHEMKMNF": 1,
        "JJDHEDIELLH": 5010403,
        "JMJFMNDOGLH": 1,
        "LHMDLBIBIPE": 5010404,
        "PIJOEHNBEJN": 1
    },
    {
        "IDNICJNHDFF": 50111,
        "NFPBAOPFKOB": 5011101,
        "ALKLNHOFBNG": 1,
        "ADDKJHCPJBF": 5011102,
        "CFAEHEMKMNF": 1,
        "LHMDLBIBIPE": 5011104,
        "PIJOEHNBEJN": 1,
        "FIAGDEGBNEB": 5011103,
        "NLCAELBPNFC": 1,
        "DLOIFGPEJEP": 4
    },
    {
        "IDNICJNHDFF": 50112,
        "NFPBAOPFKOB": 5011201,
        "ALKLNHOFBNG": 1,
        "ADDKJHCPJBF": 5011202,
        "CFAEHEMKMNF": 1,
        "JJDHEDIELLH": 5011203,
        "JMJFMNDOGLH": 1,
        "LHMDLBIBIPE": 5011204,
        "PIJOEHNBEJN": 1
    },
    {
        "IDNICJNHDFF": 50113,
        "NFPBAOPFKOB": 5011301,
        "ALKLNHOFBNG": 1,
        "ADDKJHCPJBF": 5011302,
        "CFAEHEMKMNF": 1,
        "JJDHEDIELLH": 5011303,
        "JMJFMNDOGLH": 1,
        "LHMDLBIBIPE": 5011304,
        "PIJOEHNBEJN": 1
    },
    {
        "IDNICJNHDFF": 50105,
        "NFPBAOPFKOB": 5010101,
        "ALKLNHOFBNG": 1,
        "ADDKJHCPJBF": 5010102,
        "CFAEHEMKMNF": 1,
        "LHMDLBIBIPE": 5010104,
        "PIJOEHNBEJN": 1,
        "FIAGDEGBNEB": 5010103,
        "NLCAELBPNFC": 1,
        "DLOIFGPEJEP": 4
    },
    {
        "IDNICJNHDFF": 50201,
        "NFPBAOPFKOB": 14040101,
        "ALKLNHOFBNG": 1,
        "ADDKJHCPJBF": 14040102,
        "CFAEHEMKMNF": 1,
        "JJDHEDIELLH": 14040103,
        "JMJFMNDOGLH": 1,
        "LHMDLBIBIPE": 14040104,
        "PIJOEHNBEJN": 1
    },
    {
        "IDNICJNHDFF": 110601,
        "NFPBAOPFKOB": 11060101,
        "ALKLNHOFBNG": 1,
        "ADDKJHCPJBF": 11060102,
        "CFAEHEMKMNF": 1,
        "JJDHEDIELLH": 11060103,
        "JMJFMNDOGLH": 1,
        "LHMDLBIBIPE": 11060104,
        "PIJOEHNBEJN": 1
    },
    {
        "IDNICJNHDFF": 110602,
        "NFPBAOPFKOB": 11060101,
        "ALKLNHOFBNG": 1,
        "ADDKJHCPJBF": 11060102,
        "CFAEHEMKMNF": 1,
        "JJDHEDIELLH": 11060103,
        "JMJFMNDOGLH": 1,
        "LHMDLBIBIPE": 11060104,
        "PIJOEHNBEJN": 1
    },
    {
        "IDNICJNHDFF": 110603,
        "NFPBAOPFKOB": 11060101,
        "ALKLNHOFBNG": 1,
        "ADDKJHCPJBF": 11060102,
        "CFAEHEMKMNF": 1,
        "JJDHEDIELLH": 11060103,
        "JMJFMNDOGLH": 1,
        "LHMDLBIBIPE": 11060104,
        "PIJOEHNBEJN": 1
    },
    {
        "IDNICJNHDFF": 110604,
        "NFPBAOPFKOB": 11060111,
        "ALKLNHOFBNG": 1,
        "ADDKJHCPJBF": 11060112,
        "CFAEHEMKMNF": 1,
        "JJDHEDIELLH": 11060113,
        "JMJFMNDOGLH": 1,
        "LHMDLBIBIPE": 11060114,
        "PIJOEHNBEJN": 1
    },
    {
        "IDNICJNHDFF": 120501,
        "NFPBAOPFKOB": 12050101,
        "ALKLNHOFBNG": 1,
        "ADDKJHCPJBF": 12050102,
        "CFAEHEMKMNF": 1,
        "JJDHEDIELLH": 12050103,
        "JMJFMNDOGLH": 1,
        "LHMDLBIBIPE": 12050104,
        "PIJOEHNBEJN": 1
    },
    {
        "IDNICJNHDFF": 120502,
        "NFPBAOPFKOB": 12050101,
        "ALKLNHOFBNG": 1,
        "ADDKJHCPJBF": 12050102,
        "CFAEHEMKMNF": 1,
        "JJDHEDIELLH": 12050103,
        "JMJFMNDOGLH": 1,
        "LHMDLBIBIPE": 12050104,
        "PIJOEHNBEJN": 1
    },
    {
        "IDNICJNHDFF": 120503,
        "NFPBAOPFKOB": 12050101,
        "ALKLNHOFBNG": 1,
        "ADDKJHCPJBF": 12050102,
        "CFAEHEMKMNF": 1,
        "JJDHEDIELLH": 12050103,
        "JMJFMNDOGLH": 1,
        "LHMDLBIBIPE": 12050104,
        "PIJOEHNBEJN": 1
    },
    {
        "IDNICJNHDFF": 120504,
        "NFPBAOPFKOB": 12050111,
        "ALKLNHOFBNG": 1,
        "ADDKJHCPJBF": 12050112,
        "CFAEHEMKMNF": 1,
        "JJDHEDIELLH": 12050113,
        "JMJFMNDOGLH": 1,
        "LHMDLBIBIPE": 12050114,
        "PIJOEHNBEJN": 1
    },
    {
        "IDNICJNHDFF": 140601,
        "NFPBAOPFKOB": 14060101,
        "ALKLNHOFBNG": 1,
        "ADDKJHCPJBF": 14060102,
        "CFAEHEMKMNF": 1,
        "JJDHEDIELLH": 14060103,
        "JMJFMNDOGLH": 1,
        "LHMDLBIBIPE": 14060104,
        "PIJOEHNBEJN": 1
    },
    {
        "IDNICJNHDFF": 140602,
        "NFPBAOPFKOB": 14060101,
        "ALKLNHOFBNG": 1,
        "ADDKJHCPJBF": 14060102,
        "CFAEHEMKMNF": 1,
        "JJDHEDIELLH": 14060103,
        "JMJFMNDOGLH": 1,
        "LHMDLBIBIPE": 14060104,
        "PIJOEHNBEJN": 1
    },
    {
        "IDNICJNHDFF": 140603,
        "NFPBAOPFKOB": 14060101,
        "ALKLNHOFBNG": 1,
        "ADDKJHCPJBF": 14060102,
        "CFAEHEMKMNF": 1,
        "JJDHEDIELLH": 14060103,
        "JMJFMNDOGLH": 1,
        "LHMDLBIBIPE": 14060104,
        "PIJOEHNBEJN": 1
    },
    {
        "IDNICJNHDFF": 140604,
        "NFPBAOPFKOB": 14060111,
        "ALKLNHOFBNG": 1,
        "ADDKJHCPJBF": 14060112,
        "CFAEHEMKMNF": 1,
        "JJDHEDIELLH": 14060113,
        "JMJFMNDOGLH": 1,
        "LHMDLBIBIPE": 14060114,
        "PIJOEHNBEJN": 1
    }
]