[
    {
        "id": 201,
        "npcId": 9510,
        "LHEECKCLJIL": "WEEK_NPC_CHARACTER",
        "HDEIFENMGLI": [
            {
                "levelId": 2011,
                "CIEAGKLCHJK": 1
            },
            {
                "levelId": 2012,
                "CIEAGKLCHJK": 3
            },
            {
                "levelId": 2013,
                "CIEAGKLCHJK": 5
            },
            {
                "levelId": 2014,
                "CIEAGKLCHJK": 7
            },
            {
                "levelId": 2015,
                "CIEAGKLCHJK": 10
            }
        ],
        "NDEEAIHNEHK": [],
        "iconName": "UI_AvatarIcon_Ganyu"
    },
    {
        "id": 202,
        "npcId": 9508,
        "BGNLKDOBNFH": true,
        "LHEECKCLJIL": "WEEK_NPC_CHARACTER",
        "HDEIFENMGLI": [
            {
                "levelId": 2021,
                "CIEAGKLCHJK": 1
            },
            {
                "levelId": 2022,
                "CIEAGKLCHJK": 3
            },
            {
                "levelId": 2023,
                "CIEAGKLCHJK": 5
            },
            {
                "levelId": 2024,
                "CIEAGKLCHJK": 7
            },
            {
                "levelId": 2025,
                "CIEAGKLCHJK": 10
            }
        ],
        "NDEEAIHNEHK": [],
        "iconName": "UI_AvatarIcon_Diona"
    },
    {
        "id": 203,
        "npcId": 9511,
        "LHEECKCLJIL": "WEEK_NPC_CHARACTER",
        "HDEIFENMGLI": [
            {
                "levelId": 2031,
                "CIEAGKLCHJK": 1
            },
            {
                "levelId": 2032,
                "CIEAGKLCHJK": 3
            },
            {
                "levelId": 2033,
                "CIEAGKLCHJK": 5
            },
            {
                "levelId": 2034,
                "CIEAGKLCHJK": 7
            },
            {
                "levelId": 2035,
                "CIEAGKLCHJK": 10
            }
        ],
        "NDEEAIHNEHK": [],
        "iconName": "UI_AvatarIcon_Kaeya"
    },
    {
        "id": 204,
        "npcId": 9512,
        "LHEECKCLJIL": "WEEK_NPC_CHARACTER",
        "HDEIFENMGLI": [
            {
                "levelId": 2041,
                "CIEAGKLCHJK": 1
            },
            {
                "levelId": 2042,
                "CIEAGKLCHJK": 3
            },
            {
                "levelId": 2043,
                "CIEAGKLCHJK": 5
            },
            {
                "levelId": 2044,
                "CIEAGKLCHJK": 7
            },
            {
                "levelId": 2045,
                "CIEAGKLCHJK": 10
            }
        ],
        "NDEEAIHNEHK": [],
        "iconName": "UI_AvatarIcon_Chongyun"
    },
    {
        "id": 205,
        "npcId": 9513,
        "LHEECKCLJIL": "WEEK_NPC_CHARACTER",
        "HDEIFENMGLI": [
            {
                "levelId": 2051,
                "CIEAGKLCHJK": 1
            },
            {
                "levelId": 2052,
                "CIEAGKLCHJK": 3
            },
            {
                "levelId": 2053,
                "CIEAGKLCHJK": 5
            },
            {
                "levelId": 2054,
                "CIEAGKLCHJK": 7
            },
            {
                "levelId": 2055,
                "CIEAGKLCHJK": 10
            }
        ],
        "NDEEAIHNEHK": [],
        "openQuestId": 1204209,
        "iconName": "UI_AvatarIcon_Ayaka"
    },
    {
        "id": 206,
        "npcId": 9522,
        "BGNLKDOBNFH": true,
        "LHEECKCLJIL": "WEEK_NPC_CHARACTER",
        "HDEIFENMGLI": [
            {
                "levelId": 2061,
                "CIEAGKLCHJK": 1
            },
            {
                "levelId": 2062,
                "CIEAGKLCHJK": 3
            },
            {
                "levelId": 2063,
                "CIEAGKLCHJK": 5
            },
            {
                "levelId": 2064,
                "CIEAGKLCHJK": 7
            },
            {
                "levelId": 2065,
                "CIEAGKLCHJK": 10
            }
        ],
        "NDEEAIHNEHK": [],
        "iconName": "UI_AvatarIcon_Barbara"
    },
    {
        "id": 207,
        "npcId": 9516,
        "LHEECKCLJIL": "WEEK_NPC_CHARACTER",
        "HDEIFENMGLI": [
            {
                "levelId": 2071,
                "CIEAGKLCHJK": 1
            },
            {
                "levelId": 2072,
                "CIEAGKLCHJK": 3
            },
            {
                "levelId": 2073,
                "CIEAGKLCHJK": 5
            },
            {
                "levelId": 2074,
                "CIEAGKLCHJK": 7
            },
            {
                "levelId": 2075,
                "CIEAGKLCHJK": 10
            }
        ],
        "NDEEAIHNEHK": [],
        "iconName": "UI_AvatarIcon_Xingqiu"
    },
    {
        "id": 208,
        "npcId": 9517,
        "LHEECKCLJIL": "WEEK_NPC_CHARACTER",
        "HDEIFENMGLI": [
            {
                "levelId": 2081,
                "CIEAGKLCHJK": 1
            },
            {
                "levelId": 2082,
                "CIEAGKLCHJK": 3
            },
            {
                "levelId": 2083,
                "CIEAGKLCHJK": 5
            },
            {
                "levelId": 2084,
                "CIEAGKLCHJK": 7
            },
            {
                "levelId": 2085,
                "CIEAGKLCHJK": 10
            }
        ],
        "NDEEAIHNEHK": [],
        "iconName": "UI_AvatarIcon_Mona"
    },
    {
        "id": 209,
        "npcId": 9504,
        "LHEECKCLJIL": "WEEK_NPC_CHARACTER",
        "HDEIFENMGLI": [
            {
                "levelId": 2091,
                "CIEAGKLCHJK": 1
            },
            {
                "levelId": 2092,
                "CIEAGKLCHJK": 3
            },
            {
                "levelId": 2093,
                "CIEAGKLCHJK": 5
            },
            {
                "levelId": 2094,
                "CIEAGKLCHJK": 7
            },
            {
                "levelId": 2095,
                "CIEAGKLCHJK": 10
            }
        ],
        "NDEEAIHNEHK": [],
        "iconName": "UI_AvatarIcon_Diluc"
    },
    {
        "id": 210,
        "npcId": 9505,
        "LHEECKCLJIL": "WEEK_NPC_CHARACTER",
        "HDEIFENMGLI": [
            {
                "levelId": 2101,
                "CIEAGKLCHJK": 1
            },
            {
                "levelId": 2102,
                "CIEAGKLCHJK": 3
            },
            {
                "levelId": 2103,
                "CIEAGKLCHJK": 5
            },
            {
                "levelId": 2104,
                "CIEAGKLCHJK": 7
            },
            {
                "levelId": 2105,
                "CIEAGKLCHJK": 10
            }
        ],
        "NDEEAIHNEHK": [],
        "iconName": "UI_AvatarIcon_Xiangling"
    },
    {
        "id": 211,
        "npcId": 9507,
        "LHEECKCLJIL": "WEEK_NPC_CHARACTER",
        "HDEIFENMGLI": [
            {
                "levelId": 2111,
                "CIEAGKLCHJK": 1
            },
            {
                "levelId": 2112,
                "CIEAGKLCHJK": 3
            },
            {
                "levelId": 2113,
                "CIEAGKLCHJK": 5
            },
            {
                "levelId": 2114,
                "CIEAGKLCHJK": 7
            },
            {
                "levelId": 2115,
                "CIEAGKLCHJK": 10
            }
        ],
        "NDEEAIHNEHK": [],
        "iconName": "UI_AvatarIcon_Bennett"
    },
    {
        "id": 212,
        "npcId": 9509,
        "BGNLKDOBNFH": true,
        "LHEECKCLJIL": "WEEK_NPC_CHARACTER",
        "HDEIFENMGLI": [
            {
                "levelId": 2121,
                "CIEAGKLCHJK": 1
            },
            {
                "levelId": 2122,
                "CIEAGKLCHJK": 3
            },
            {
                "levelId": 2123,
                "CIEAGKLCHJK": 5
            },
            {
                "levelId": 2124,
                "CIEAGKLCHJK": 7
            },
            {
                "levelId": 2125,
                "CIEAGKLCHJK": 10
            }
        ],
        "NDEEAIHNEHK": [],
        "openQuestId": 1204209,
        "iconName": "UI_AvatarIcon_Yoimiya"
    },
    {
        "id": 213,
        "npcId": 9501,
        "LHEECKCLJIL": "WEEK_NPC_CHARACTER",
        "HDEIFENMGLI": [
            {
                "levelId": 2131,
                "CIEAGKLCHJK": 1
            },
            {
                "levelId": 2132,
                "CIEAGKLCHJK": 3
            },
            {
                "levelId": 2133,
                "CIEAGKLCHJK": 5
            },
            {
                "levelId": 2134,
                "CIEAGKLCHJK": 7
            },
            {
                "levelId": 2135,
                "CIEAGKLCHJK": 10
            }
        ],
        "NDEEAIHNEHK": [],
        "iconName": "UI_AvatarIcon_Fischl"
    },
    {
        "id": 214,
        "npcId": 9502,
        "BGNLKDOBNFH": true,
        "LHEECKCLJIL": "WEEK_NPC_CHARACTER",
        "HDEIFENMGLI": [
            {
                "levelId": 2141,
                "CIEAGKLCHJK": 1
            },
            {
                "levelId": 2142,
                "CIEAGKLCHJK": 3
            },
            {
                "levelId": 2143,
                "CIEAGKLCHJK": 5
            },
            {
                "levelId": 2144,
                "CIEAGKLCHJK": 7
            },
            {
                "levelId": 2145,
                "CIEAGKLCHJK": 10
            }
        ],
        "NDEEAIHNEHK": [],
        "iconName": "UI_AvatarIcon_Razor"
    },
    {
        "id": 215,
        "npcId": 9503,
        "LHEECKCLJIL": "WEEK_NPC_CHARACTER",
        "HDEIFENMGLI": [
            {
                "levelId": 2151,
                "CIEAGKLCHJK": 1
            },
            {
                "levelId": 2152,
                "CIEAGKLCHJK": 3
            },
            {
                "levelId": 2153,
                "CIEAGKLCHJK": 5
            },
            {
                "levelId": 2154,
                "CIEAGKLCHJK": 7
            },
            {
                "levelId": 2155,
                "CIEAGKLCHJK": 10
            }
        ],
        "NDEEAIHNEHK": [],
        "iconName": "UI_AvatarIcon_Keqing"
    },
    {
        "id": 216,
        "npcId": 9521,
        "LHEECKCLJIL": "WEEK_NPC_CHARACTER",
        "HDEIFENMGLI": [
            {
                "levelId": 2161,
                "CIEAGKLCHJK": 1
            },
            {
                "levelId": 2162,
                "CIEAGKLCHJK": 3
            },
            {
                "levelId": 2163,
                "CIEAGKLCHJK": 5
            },
            {
                "levelId": 2164,
                "CIEAGKLCHJK": 7
            },
            {
                "levelId": 2165,
                "CIEAGKLCHJK": 10
            }
        ],
        "NDEEAIHNEHK": [],
        "iconName": "UI_AvatarIcon_Cyno"
    },
    {
        "id": 217,
        "npcId": 9518,
        "BGNLKDOBNFH": true,
        "LHEECKCLJIL": "WEEK_NPC_CHARACTER",
        "HDEIFENMGLI": [
            {
                "levelId": 2171,
                "CIEAGKLCHJK": 1
            },
            {
                "levelId": 2172,
                "CIEAGKLCHJK": 3
            },
            {
                "levelId": 2173,
                "CIEAGKLCHJK": 5
            },
            {
                "levelId": 2174,
                "CIEAGKLCHJK": 7
            },
            {
                "levelId": 2175,
                "CIEAGKLCHJK": 10
            }
        ],
        "NDEEAIHNEHK": [],
        "iconName": "UI_AvatarIcon_Sucrose"
    },
    {
        "id": 218,
        "npcId": 9519,
        "LHEECKCLJIL": "WEEK_NPC_CHARACTER",
        "HDEIFENMGLI": [
            {
                "levelId": 2181,
                "CIEAGKLCHJK": 1
            },
            {
                "levelId": 2182,
                "CIEAGKLCHJK": 3
            },
            {
                "levelId": 2183,
                "CIEAGKLCHJK": 5
            },
            {
                "levelId": 2184,
                "CIEAGKLCHJK": 7
            },
            {
                "levelId": 2185,
                "CIEAGKLCHJK": 10
            }
        ],
        "NDEEAIHNEHK": [],
        "iconName": "UI_AvatarIcon_Qin"
    },
    {
        "id": 219,
        "npcId": 9514,
        "LHEECKCLJIL": "WEEK_NPC_CHARACTER",
        "HDEIFENMGLI": [
            {
                "levelId": 2191,
                "CIEAGKLCHJK": 1
            },
            {
                "levelId": 2192,
                "CIEAGKLCHJK": 3
            },
            {
                "levelId": 2193,
                "CIEAGKLCHJK": 5
            },
            {
                "levelId": 2194,
                "CIEAGKLCHJK": 7
            },
            {
                "levelId": 2195,
                "CIEAGKLCHJK": 10
            }
        ],
        "NDEEAIHNEHK": [],
        "iconName": "UI_AvatarIcon_Ningguang"
    },
    {
        "id": 220,
        "npcId": 9515,
        "BGNLKDOBNFH": true,
        "LHEECKCLJIL": "WEEK_NPC_CHARACTER",
        "HDEIFENMGLI": [
            {
                "levelId": 2201,
                "CIEAGKLCHJK": 1
            },
            {
                "levelId": 2202,
                "CIEAGKLCHJK": 3
            },
            {
                "levelId": 2203,
                "CIEAGKLCHJK": 5
            },
            {
                "levelId": 2204,
                "CIEAGKLCHJK": 7
            },
            {
                "levelId": 2205,
                "CIEAGKLCHJK": 10
            }
        ],
        "NDEEAIHNEHK": [],
        "iconName": "UI_AvatarIcon_Noel"
    },
    {
        "id": 221,
        "npcId": 9520,
        "LHEECKCLJIL": "WEEK_NPC_CHARACTER",
        "HDEIFENMGLI": [
            {
                "levelId": 2211,
                "CIEAGKLCHJK": 1
            },
            {
                "levelId": 2212,
                "CIEAGKLCHJK": 3
            },
            {
                "levelId": 2213,
                "CIEAGKLCHJK": 5
            },
            {
                "levelId": 2214,
                "CIEAGKLCHJK": 7
            },
            {
                "levelId": 2215,
                "CIEAGKLCHJK": 10
            }
        ],
        "NDEEAIHNEHK": [],
        "iconName": "UI_AvatarIcon_Collei"
    },
    {
        "id": 222,
        "npcId": 9526,
        "LHEECKCLJIL": "WEEK_NPC_CHARACTER",
        "HDEIFENMGLI": [
            {
                "levelId": 2221,
                "CIEAGKLCHJK": 1
            },
            {
                "levelId": 2222,
                "CIEAGKLCHJK": 3
            },
            {
                "levelId": 2223,
                "CIEAGKLCHJK": 5
            },
            {
                "levelId": 2224,
                "CIEAGKLCHJK": 7
            },
            {
                "levelId": 2225,
                "CIEAGKLCHJK": 10
            }
        ],
        "NDEEAIHNEHK": [],
        "iconName": "UI_AvatarIcon_Klee"
    },
    {
        "id": 223,
        "npcId": 9525,
        "LHEECKCLJIL": "WEEK_NPC_CHARACTER",
        "HDEIFENMGLI": [
            {
                "levelId": 2231,
                "CIEAGKLCHJK": 1
            },
            {
                "levelId": 2232,
                "CIEAGKLCHJK": 3
            },
            {
                "levelId": 2233,
                "CIEAGKLCHJK": 5
            },
            {
                "levelId": 2234,
                "CIEAGKLCHJK": 7
            },
            {
                "levelId": 2235,
                "CIEAGKLCHJK": 10
            }
        ],
        "NDEEAIHNEHK": [],
        "iconName": "UI_AvatarIcon_Beidou"
    },
    {
        "id": 224,
        "npcId": 9528,
        "LHEECKCLJIL": "WEEK_NPC_CHARACTER",
        "HDEIFENMGLI": [
            {
                "levelId": 2241,
                "CIEAGKLCHJK": 1
            },
            {
                "levelId": 2242,
                "CIEAGKLCHJK": 3
            },
            {
                "levelId": 2243,
                "CIEAGKLCHJK": 5
            },
            {
                "levelId": 2244,
                "CIEAGKLCHJK": 7
            },
            {
                "levelId": 2245,
                "CIEAGKLCHJK": 10
            }
        ],
        "NDEEAIHNEHK": [],
        "iconName": "UI_AvatarIcon_Eula"
    },
    {
        "id": 225,
        "npcId": 9527,
        "LHEECKCLJIL": "WEEK_NPC_CHARACTER",
        "HDEIFENMGLI": [
            {
                "levelId": 2251,
                "CIEAGKLCHJK": 1
            },
            {
                "levelId": 2252,
                "CIEAGKLCHJK": 3
            },
            {
                "levelId": 2253,
                "CIEAGKLCHJK": 5
            },
            {
                "levelId": 2254,
                "CIEAGKLCHJK": 7
            },
            {
                "levelId": 2255,
                "CIEAGKLCHJK": 10
            }
        ],
        "NDEEAIHNEHK": [],
        "openQuestId": 1204209,
        "iconName": "UI_AvatarIcon_Kokomi"
    },
    {
        "id": 226,
        "npcId": 9529,
        "LHEECKCLJIL": "WEEK_NPC_CHARACTER",
        "HDEIFENMGLI": [
            {
                "levelId": 2261,
                "CIEAGKLCHJK": 1
            },
            {
                "levelId": 2262,
                "CIEAGKLCHJK": 3
            },
            {
                "levelId": 2263,
                "CIEAGKLCHJK": 5
            },
            {
                "levelId": 2264,
                "CIEAGKLCHJK": 7
            },
            {
                "levelId": 2265,
                "CIEAGKLCHJK": 10
            }
        ],
        "NDEEAIHNEHK": [],
        "openQuestId": 1204209,
        "iconName": "UI_AvatarIcon_Sara"
    },
    {
        "id": 101,
        "npcId": 9700,
        "LHEECKCLJIL": "WEEK_NPC_NORMAL",
        "HDEIFENMGLI": [
            {
                "levelId": 1011,
                "CIEAGKLCHJK": 1
            },
            {
                "levelId": 1012,
                "CIEAGKLCHJK": 3
            },
            {
                "levelId": 1013,
                "CIEAGKLCHJK": 5
            },
            {
                "levelId": 1014,
                "CIEAGKLCHJK": 7
            },
            {
                "levelId": 1015,
                "CIEAGKLCHJK": 10
            }
        ],
        "NDEEAIHNEHK": [],
        "iconName": "UI_Gcg_NPC_Mengde_Patton",
        "DGNMIBIANEG": 3
    },
    {
        "id": 102,
        "npcId": 9701,
        "LHEECKCLJIL": "WEEK_NPC_NORMAL",
        "HDEIFENMGLI": [
            {
                "levelId": 1021,
                "CIEAGKLCHJK": 1
            },
            {
                "levelId": 1022,
                "CIEAGKLCHJK": 3
            },
            {
                "levelId": 1023,
                "CIEAGKLCHJK": 5
            },
            {
                "levelId": 1024,
                "CIEAGKLCHJK": 7
            },
            {
                "levelId": 1025,
                "CIEAGKLCHJK": 10
            }
        ],
        "NDEEAIHNEHK": [],
        "iconName": "UI_Gcg_NPC_Mengde_Marjorie"
    },
    {
        "id": 103,
        "npcId": 9704,
        "LHEECKCLJIL": "WEEK_NPC_NORMAL",
        "HDEIFENMGLI": [
            {
                "levelId": 1031,
                "CIEAGKLCHJK": 1
            },
            {
                "levelId": 1032,
                "CIEAGKLCHJK": 3
            },
            {
                "levelId": 1033,
                "CIEAGKLCHJK": 5
            },
            {
                "levelId": 1034,
                "CIEAGKLCHJK": 7
            },
            {
                "levelId": 1035,
                "CIEAGKLCHJK": 10
            }
        ],
        "NDEEAIHNEHK": [],
        "iconName": "UI_Gcg_NPC_Mengde_Ellin"
    },
    {
        "id": 104,
        "npcId": 9708,
        "LHEECKCLJIL": "WEEK_NPC_NORMAL",
        "HDEIFENMGLI": [
            {
                "levelId": 1041,
                "CIEAGKLCHJK": 1
            },
            {
                "levelId": 1042,
                "CIEAGKLCHJK": 3
            },
            {
                "levelId": 1043,
                "CIEAGKLCHJK": 5
            },
            {
                "levelId": 1044,
                "CIEAGKLCHJK": 7
            },
            {
                "levelId": 1045,
                "CIEAGKLCHJK": 10
            }
        ],
        "NDEEAIHNEHK": [],
        "iconName": "UI_Gcg_NPC_Mengde_Wagner",
        "DGNMIBIANEG": 3
    },
    {
        "id": 105,
        "npcId": 9706,
        "LHEECKCLJIL": "WEEK_NPC_NORMAL",
        "HDEIFENMGLI": [
            {
                "levelId": 1051,
                "CIEAGKLCHJK": 1
            },
            {
                "levelId": 1052,
                "CIEAGKLCHJK": 3
            },
            {
                "levelId": 1053,
                "CIEAGKLCHJK": 5
            },
            {
                "levelId": 1054,
                "CIEAGKLCHJK": 7
            },
            {
                "levelId": 1055,
                "CIEAGKLCHJK": 10
            }
        ],
        "NDEEAIHNEHK": [],
        "iconName": "UI_Gcg_NPC_Mengde_Timaeus",
        "DGNMIBIANEG": 3
    },
    {
        "id": 106,
        "npcId": 9705,
        "LHEECKCLJIL": "WEEK_NPC_NORMAL",
        "HDEIFENMGLI": [
            {
                "levelId": 1061,
                "CIEAGKLCHJK": 1
            },
            {
                "levelId": 1062,
                "CIEAGKLCHJK": 3
            },
            {
                "levelId": 1063,
                "CIEAGKLCHJK": 5
            },
            {
                "levelId": 1064,
                "CIEAGKLCHJK": 7
            },
            {
                "levelId": 1065,
                "CIEAGKLCHJK": 10
            }
        ],
        "NDEEAIHNEHK": [],
        "iconName": "UI_Gcg_NPC_Liyue_Lan"
    },
    {
        "id": 107,
        "npcId": 9709,
        "LHEECKCLJIL": "WEEK_NPC_NORMAL",
        "HDEIFENMGLI": [
            {
                "levelId": 1071,
                "CIEAGKLCHJK": 1
            },
            {
                "levelId": 1072,
                "CIEAGKLCHJK": 3
            },
            {
                "levelId": 1073,
                "CIEAGKLCHJK": 5
            },
            {
                "levelId": 1074,
                "CIEAGKLCHJK": 7
            },
            {
                "levelId": 1075,
                "CIEAGKLCHJK": 10
            }
        ],
        "NDEEAIHNEHK": [],
        "iconName": "UI_Gcg_NPC_Liyue_ChefMao"
    },
    {
        "id": 108,
        "npcId": 9710,
        "LHEECKCLJIL": "WEEK_NPC_NORMAL",
        "HDEIFENMGLI": [
            {
                "levelId": 1081,
                "CIEAGKLCHJK": 1
            },
            {
                "levelId": 1082,
                "CIEAGKLCHJK": 3
            },
            {
                "levelId": 1083,
                "CIEAGKLCHJK": 5
            },
            {
                "levelId": 1084,
                "CIEAGKLCHJK": 7
            },
            {
                "levelId": 1085,
                "CIEAGKLCHJK": 10
            }
        ],
        "NDEEAIHNEHK": [],
        "openQuestId": 201310,
        "iconName": "UI_Gcg_NPC_Inazuma_Kurisu",
        "DGNMIBIANEG": 3
    },
    {
        "id": 109,
        "npcId": 9713,
        "LHEECKCLJIL": "WEEK_NPC_NORMAL",
        "HDEIFENMGLI": [
            {
                "levelId": 1091,
                "CIEAGKLCHJK": 1
            },
            {
                "levelId": 1092,
                "CIEAGKLCHJK": 3
            },
            {
                "levelId": 1093,
                "CIEAGKLCHJK": 5
            },
            {
                "levelId": 1094,
                "CIEAGKLCHJK": 7
            },
            {
                "levelId": 1095,
                "CIEAGKLCHJK": 10
            }
        ],
        "NDEEAIHNEHK": [],
        "iconName": "UI_Gcg_NPC_Sumeru_Darina",
        "DGNMIBIANEG": 3
    },
    {
        "id": 110,
        "npcId": 9715,
        "LHEECKCLJIL": "WEEK_NPC_NORMAL",
        "HDEIFENMGLI": [
            {
                "levelId": 1101,
                "CIEAGKLCHJK": 1
            },
            {
                "levelId": 1102,
                "CIEAGKLCHJK": 3
            },
            {
                "levelId": 1103,
                "CIEAGKLCHJK": 5
            },
            {
                "levelId": 1104,
                "CIEAGKLCHJK": 7
            },
            {
                "levelId": 1105,
                "CIEAGKLCHJK": 10
            }
        ],
        "NDEEAIHNEHK": [],
        "iconName": "UI_Gcg_NPC_Sumeru_Kimiya"
    }
]